^C:\DOCUMENTS AND SETTINGS\ADMINISTRATEUR\BUREAU\SOCKETWINDOW\SOCKETWINDOW\STDAFX.CPP
C:\PROGRAM FILES\MICROSOFT VISUAL STUDIO 10.0\VC\BIN\1036\CLUI.DLL
C:\WINDOWS\SYSTEM32\RSAENH.DLL
C:\WINDOWS\SYSTEM32\CRYPT32.DLL
C:\DOCUMENTS AND SETTINGS\ADMINISTRATEUR\BUREAU\SOCKETWINDOW\SOCKETWINDOW\STDAFX.H
C:\DOCUMENTS AND SETTINGS\ADMINISTRATEUR\BUREAU\SOCKETWINDOW\SOCKETWINDOW\TARGETVER.H
C:\PROGRAM FILES\MICROSOFT SDKS\WINDOWS\V7.0A\INCLUDE\SDKDDKVER.H
C:\PROGRAM FILES\MICROSOFT VISUAL STUDIO 10.0\VC\ATLMFC\INCLUDE\AFXWIN.H
C:\PROGRAM FILES\MICROSOFT VISUAL STUDIO 10.0\VC\ATLMFC\INCLUDE\AFX.H
C:\PROGRAM FILES\MICROSOFT VISUAL STUDIO 10.0\VC\INCLUDE\NEW.H
C:\PROGRAM FILES\MICROSOFT VISUAL STUDIO 10.0\VC\INCLUDE\CRTDEFS.H
C:\PROGRAM FILES\MICROSOFT VISUAL STUDIO 10.0\VC\INCLUDE\SAL.H
C:\PROGRAM FILES\MICROSOFT VISUAL STUDIO 10.0\VC\INCLUDE\CODEANALYSIS\SOURCEANNOTATIONS.H
C:\PROGRAM FILES\MICROSOFT VISUAL STUDIO 10.0\VC\INCLUDE\VADEFS.H
C:\PROGRAM FILES\MICROSOFT VISUAL STUDIO 10.0\VC\ATLMFC\INCLUDE\AFXVER_.H
C:\PROGRAM FILES\MICROSOFT VISUAL STUDIO 10.0\VC\ATLMFC\INCLUDE\AFXV_W32.H
C:\PROGRAM FILES\MICROSOFT SDKS\WINDOWS\V7.0A\INCLUDE\WINSDKVER.H
C:\PROGRAM FILES\MICROSOFT SDKS\WINDOWS\V7.0A\INCLUDE\WINDOWS.H
C:\PROGRAM FILES\MICROSOFT VISUAL STUDIO 10.0\VC\INCLUDE\EXCPT.H
C:\PROGRAM FILES\MICROSOFT VISUAL STUDIO 10.0\VC\INCLUDE\STDARG.H
C:\PROGRAM FILES\MICROSOFT SDKS\WINDOWS\V7.0A\INCLUDE\WINDEF.H
C:\PROGRAM FILES\MICROSOFT SDKS\WINDOWS\V7.0A\INCLUDE\WINNT.H
C:\PROGRAM FILES\MICROSOFT VISUAL STUDIO 10.0\VC\INCLUDE\CTYPE.H
C:\PROGRAM FILES\MICROSOFT SDKS\WINDOWS\V7.0A\INCLUDE\SPECSTRINGS.H
C:\PROGRAM FILES\MICROSOFT SDKS\WINDOWS\V7.0A\INCLUDE\SAL_SUPP.H
C:\PROGRAM FILES\MICROSOFT SDKS\WINDOWS\V7.0A\INCLUDE\SPECSTRINGS_SUPP.H
C:\PROGRAM FILES\MICROSOFT SDKS\WINDOWS\V7.0A\INCLUDE\SPECSTRINGS_STRICT.H
C:\PROGRAM FILES\MICROSOFT SDKS\WINDOWS\V7.0A\INCLUDE\SPECSTRINGS_UNDEF.H
C:\PROGRAM FILES\MICROSOFT SDKS\WINDOWS\V7.0A\INCLUDE\DRIVERSPECS.H
C:\PROGRAM FILES\MICROSOFT SDKS\WINDOWS\V7.0A\INCLUDE\SDV_DRIVERSPECS.H
C:\PROGRAM FILES\MICROSOFT SDKS\WINDOWS\V7.0A\INCLUDE\KERNELSPECS.H
C:\PROGRAM FILES\MICROSOFT SDKS\WINDOWS\V7.0A\INCLUDE\BASETSD.H
C:\PROGRAM FILES\MICROSOFT SDKS\WINDOWS\V7.0A\INCLUDE\GUIDDEF.H
C:\PROGRAM FILES\MICROSOFT VISUAL STUDIO 10.0\VC\INCLUDE\STRING.H
C:\PROGRAM FILES\MICROSOFT SDKS\WINDOWS\V7.0A\INCLUDE\PSHPACK4.H
C:\PROGRAM FILES\MICROSOFT SDKS\WINDOWS\V7.0A\INCLUDE\POPPACK.H
C:\PROGRAM FILES\MICROSOFT SDKS\WINDOWS\V7.0A\INCLUDE\PSHPACK2.H
C:\PROGRAM FILES\MICROSOFT SDKS\WINDOWS\V7.0A\INCLUDE\PSHPACK8.H
C:\PROGRAM FILES\MICROSOFT SDKS\WINDOWS\V7.0A\INCLUDE\KTMTYPES.H
C:\PROGRAM FILES\MICROSOFT SDKS\WINDOWS\V7.0A\INCLUDE\WINBASE.H
C:\PROGRAM FILES\MICROSOFT SDKS\WINDOWS\V7.0A\INCLUDE\WINERROR.H
C:\PROGRAM FILES\MICROSOFT SDKS\WINDOWS\V7.0A\INCLUDE\WINGDI.H
C:\PROGRAM FILES\MICROSOFT SDKS\WINDOWS\V7.0A\INCLUDE\PSHPACK1.H
C:\PROGRAM FILES\MICROSOFT SDKS\WINDOWS\V7.0A\INCLUDE\WINUSER.H
C:\PROGRAM FILES\MICROSOFT SDKS\WINDOWS\V7.0A\INCLUDE\TVOUT.H
C:\PROGRAM FILES\MICROSOFT SDKS\WINDOWS\V7.0A\INCLUDE\WINNLS.H
C:\PROGRAM FILES\MICROSOFT SDKS\WINDOWS\V7.0A\INCLUDE\WINCON.H
C:\PROGRAM FILES\MICROSOFT SDKS\WINDOWS\V7.0A\INCLUDE\WINVER.H
C:\PROGRAM FILES\MICROSOFT SDKS\WINDOWS\V7.0A\INCLUDE\VERRSRC.H
C:\PROGRAM FILES\MICROSOFT SDKS\WINDOWS\V7.0A\INCLUDE\WINREG.H
C:\PROGRAM FILES\MICROSOFT SDKS\WINDOWS\V7.0A\INCLUDE\REASON.H
C:\PROGRAM FILES\MICROSOFT SDKS\WINDOWS\V7.0A\INCLUDE\WINNETWK.H
C:\PROGRAM FILES\MICROSOFT SDKS\WINDOWS\V7.0A\INCLUDE\WNNC.H
C:\PROGRAM FILES\MICROSOFT SDKS\WINDOWS\V7.0A\INCLUDE\STRALIGN.H
C:\PROGRAM FILES\MICROSOFT SDKS\WINDOWS\V7.0A\INCLUDE\ZMOUSE.H
C:\PROGRAM FILES\MICROSOFT SDKS\WINDOWS\V7.0A\INCLUDE\COMMCTRL.H
C:\PROGRAM FILES\MICROSOFT SDKS\WINDOWS\V7.0A\INCLUDE\PRSHT.H
C:\PROGRAM FILES\MICROSOFT VISUAL STUDIO 10.0\VC\INCLUDE\TCHAR.H
C:\PROGRAM FILES\MICROSOFT VISUAL STUDIO 10.0\VC\INCLUDE\WCHAR.H
C:\PROGRAM FILES\MICROSOFT VISUAL STUDIO 10.0\VC\INCLUDE\SWPRINTF.INL
C:\PROGRAM FILES\MICROSOFT VISUAL STUDIO 10.0\VC\INCLUDE\WTIME.INL
C:\PROGRAM FILES\MICROSOFT VISUAL STUDIO 10.0\VC\ATLMFC\INCLUDE\AFXV_DLL.H
C:\PROGRAM FILES\MICROSOFT VISUAL STUDIO 10.0\VC\INCLUDE\STDIO.H
C:\PROGRAM FILES\MICROSOFT VISUAL STUDIO 10.0\VC\INCLUDE\STDLIB.H
C:\PROGRAM FILES\MICROSOFT VISUAL STUDIO 10.0\VC\INCLUDE\LIMITS.H
C:\PROGRAM FILES\MICROSOFT VISUAL STUDIO 10.0\VC\INCLUDE\TIME.H
C:\PROGRAM FILES\MICROSOFT VISUAL STUDIO 10.0\VC\INCLUDE\TIME.INL
C:\PROGRAM FILES\MICROSOFT VISUAL STUDIO 10.0\VC\INCLUDE\STDDEF.H
C:\PROGRAM FILES\MICROSOFT VISUAL STUDIO 10.0\VC\INCLUDE\ERRNO.H
C:\PROGRAM FILES\MICROSOFT VISUAL STUDIO 10.0\VC\INCLUDE\MALLOC.H
C:\PROGRAM FILES\MICROSOFT VISUAL STUDIO 10.0\VC\INCLUDE\CRTDBG.H
C:\PROGRAM FILES\MICROSOFT VISUAL STUDIO 10.0\VC\ATLMFC\INCLUDE\ATLTRACE.H
C:\PROGRAM FILES\MICROSOFT VISUAL STUDIO 10.0\VC\ATLMFC\INCLUDE\ATLDEF.H
C:\PROGRAM FILES\MICROSOFT VISUAL STUDIO 10.0\VC\ATLMFC\INCLUDE\ATLRC.H
C:\PROGRAM FILES\MICROSOFT VISUAL STUDIO 10.0\VC\ATLMFC\INCLUDE\ATLCONV.H
C:\PROGRAM FILES\MICROSOFT VISUAL STUDIO 10.0\VC\ATLMFC\INCLUDE\ATLALLOC.H
C:\PROGRAM FILES\MICROSOFT SDKS\WINDOWS\V7.0A\INCLUDE\OLE2.H
C:\PROGRAM FILES\MICROSOFT SDKS\WINDOWS\V7.0A\INCLUDE\OBJBASE.H
C:\PROGRAM FILES\MICROSOFT SDKS\WINDOWS\V7.0A\INCLUDE\RPC.H
C:\PROGRAM FILES\MICROSOFT SDKS\WINDOWS\V7.0A\INCLUDE\RPCDCE.H
C:\PROGRAM FILES\MICROSOFT SDKS\WINDOWS\V7.0A\INCLUDE\RPCDCEP.H
C:\PROGRAM FILES\MICROSOFT SDKS\WINDOWS\V7.0A\INCLUDE\RPCNSI.H
C:\PROGRAM FILES\MICROSOFT SDKS\WINDOWS\V7.0A\INCLUDE\RPCNTERR.H
C:\PROGRAM FILES\MICROSOFT SDKS\WINDOWS\V7.0A\INCLUDE\RPCASYNC.H
C:\PROGRAM FILES\MICROSOFT SDKS\WINDOWS\V7.0A\INCLUDE\RPCNDR.H
C:\PROGRAM FILES\MICROSOFT SDKS\WINDOWS\V7.0A\INCLUDE\RPCNSIP.H
C:\PROGRAM FILES\MICROSOFT SDKS\WINDOWS\V7.0A\INCLUDE\RPCSAL.H
C:\PROGRAM FILES\MICROSOFT SDKS\WINDOWS\V7.0A\INCLUDE\WTYPES.H
C:\PROGRAM FILES\MICROSOFT SDKS\WINDOWS\V7.0A\INCLUDE\UNKNWN.H
C:\PROGRAM FILES\MICROSOFT SDKS\WINDOWS\V7.0A\INCLUDE\OBJIDL.H
C:\PROGRAM FILES\MICROSOFT SDKS\WINDOWS\V7.0A\INCLUDE\CGUID.H
C:\PROGRAM FILES\MICROSOFT SDKS\WINDOWS\V7.0A\INCLUDE\URLMON.H
C:\PROGRAM FILES\MICROSOFT SDKS\WINDOWS\V7.0A\INCLUDE\OLEIDL.H
C:\PROGRAM FILES\MICROSOFT SDKS\WINDOWS\V7.0A\INCLUDE\SERVPROV.H
C:\PROGRAM FILES\MICROSOFT SDKS\WINDOWS\V7.0A\INCLUDE\MSXML.H
C:\PROGRAM FILES\MICROSOFT SDKS\WINDOWS\V7.0A\INCLUDE\OAIDL.H
C:\PROGRAM FILES\MICROSOFT SDKS\WINDOWS\V7.0A\INCLUDE\PROPIDL.H
C:\PROGRAM FILES\MICROSOFT SDKS\WINDOWS\V7.0A\INCLUDE\OLEAUTO.H
C:\PROGRAM FILES\MICROSOFT VISUAL STUDIO 10.0\VC\ATLMFC\INCLUDE\ATLDEBUGAPI.H
C:\PROGRAM FILES\MICROSOFT VISUAL STUDIO 10.0\VC\ATLMFC\INCLUDE\AFXSTR.H
C:\PROGRAM FILES\MICROSOFT VISUAL STUDIO 10.0\VC\INCLUDE\MBSTRING.H
C:\PROGRAM FILES\MICROSOFT VISUAL STUDIO 10.0\VC\ATLMFC\INCLUDE\ATLCORE.H
C:\PROGRAM FILES\MICROSOFT VISUAL STUDIO 10.0\VC\ATLMFC\INCLUDE\ATLCHECKED.H
C:\PROGRAM FILES\MICROSOFT VISUAL STUDIO 10.0\VC\ATLMFC\INCLUDE\ATLEXCEPT.H
C:\PROGRAM FILES\MICROSOFT VISUAL STUDIO 10.0\VC\ATLMFC\INCLUDE\ATLSIMPCOLL.H
C:\PROGRAM FILES\MICROSOFT VISUAL STUDIO 10.0\VC\ATLMFC\INCLUDE\CSTRINGT.H
C:\PROGRAM FILES\MICROSOFT VISUAL STUDIO 10.0\VC\ATLMFC\INCLUDE\ATLSIMPSTR.H
C:\PROGRAM FILES\MICROSOFT VISUAL STUDIO 10.0\VC\ATLMFC\INCLUDE\ATLMEM.H
C:\PROGRAM FILES\MICROSOFT VISUAL STUDIO 10.0\VC\ATLMFC\INCLUDE\ATLCOMMEM.H
C:\PROGRAM FILES\MICROSOFT VISUAL STUDIO 10.0\VC\ATLMFC\INCLUDE\ATLCOMCLI.H
C:\PROGRAM FILES\MICROSOFT SDKS\WINDOWS\V7.0A\INCLUDE\OLECTL.H
C:\PROGRAM FILES\MICROSOFT SDKS\WINDOWS\V7.0A\INCLUDE\OCIDL.H
C:\PROGRAM FILES\MICROSOFT VISUAL STUDIO 10.0\VC\ATLMFC\INCLUDE\CSTRINGT.INL
C:\PROGRAM FILES\MICROSOFT VISUAL STUDIO 10.0\VC\ATLMFC\INCLUDE\ATLTRANSACTIONMANAGER.H
C:\PROGRAM FILES\MICROSOFT SDKS\WINDOWS\V7.0A\INCLUDE\KTMW32.H
C:\PROGRAM FILES\MICROSOFT VISUAL STUDIO 10.0\VC\ATLMFC\INCLUDE\ATLTIME.H
C:\PROGRAM FILES\MICROSOFT SDKS\WINDOWS\V7.0A\INCLUDE\OLEDB.H
C:\PROGRAM FILES\MICROSOFT SDKS\WINDOWS\V7.0A\INCLUDE\TRANSACT.H
C:\PROGRAM FILES\MICROSOFT SDKS\WINDOWS\V7.0A\INCLUDE\ACCCTRL.H
C:\PROGRAM FILES\MICROSOFT VISUAL STUDIO 10.0\VC\ATLMFC\INCLUDE\AFXCOLL.H
C:\PROGRAM FILES\MICROSOFT VISUAL STUDIO 10.0\VC\ATLMFC\INCLUDE\AFXSTAT_.H
C:\PROGRAM FILES\MICROSOFT VISUAL STUDIO 10.0\VC\ATLMFC\INCLUDE\ATLTYPES.H
C:\PROGRAM FILES\MICROSOFT VISUAL STUDIO 10.0\VC\ATLMFC\INCLUDE\AFXTLS_.H
C:\PROGRAM FILES\MICROSOFT VISUAL STUDIO 10.0\VC\ATLMFC\INCLUDE\AFX.INL
C:\PROGRAM FILES\MICROSOFT SDKS\WINDOWS\V7.0A\INCLUDE\SHELLAPI.H
C:\PROGRAM FILES\MICROSOFT VISUAL STUDIO 10.0\VC\ATLMFC\INCLUDE\AFXRES.H
C:\PROGRAM FILES\MICROSOFT SDKS\WINDOWS\V7.0A\INCLUDE\COMMDLG.H
C:\PROGRAM FILES\MICROSOFT VISUAL STUDIO 10.0\VC\ATLMFC\INCLUDE\AFXCTRLCONTAINER.H
C:\PROGRAM FILES\MICROSOFT SDKS\WINDOWS\V7.0A\INCLUDE\SHOBJIDL.H
C:\PROGRAM FILES\MICROSOFT SDKS\WINDOWS\V7.0A\INCLUDE\DOCOBJ.H
C:\PROGRAM FILES\MICROSOFT SDKS\WINDOWS\V7.0A\INCLUDE\SHTYPES.H
C:\PROGRAM FILES\MICROSOFT SDKS\WINDOWS\V7.0A\INCLUDE\COMCAT.H
C:\PROGRAM FILES\MICROSOFT SDKS\WINDOWS\V7.0A\INCLUDE\PROPSYS.H
C:\PROGRAM FILES\MICROSOFT SDKS\WINDOWS\V7.0A\INCLUDE\STRUCTUREDQUERYCONDITION.H
C:\PROGRAM FILES\MICROSOFT SDKS\WINDOWS\V7.0A\INCLUDE\PROPKEYDEF.H
C:\PROGRAM FILES\MICROSOFT SDKS\WINDOWS\V7.0A\INCLUDE\OBJECTARRAY.H
C:\PROGRAM FILES\MICROSOFT SDKS\WINDOWS\V7.0A\INCLUDE\SHERRORS.H
C:\PROGRAM FILES\MICROSOFT SDKS\WINDOWS\V7.0A\INCLUDE\THUMBCACHE.H
C:\PROGRAM FILES\MICROSOFT VISUAL STUDIO 10.0\VC\ATLMFC\INCLUDE\ATLHANDLER.H
C:\PROGRAM FILES\MICROSOFT SDKS\WINDOWS\V7.0A\INCLUDE\FILTER.H
C:\PROGRAM FILES\MICROSOFT VISUAL STUDIO 10.0\VC\ATLMFC\INCLUDE\ATLSTR.H
C:\PROGRAM FILES\MICROSOFT VISUAL STUDIO 10.0\VC\ATLMFC\INCLUDE\ATLBASE.H
C:\PROGRAM FILES\MICROSOFT SDKS\WINDOWS\V7.0A\INCLUDE\WINSOCK2.H
C:\PROGRAM FILES\MICROSOFT SDKS\WINDOWS\V7.0A\INCLUDE\WS2DEF.H
C:\PROGRAM FILES\MICROSOFT SDKS\WINDOWS\V7.0A\INCLUDE\INADDR.H
C:\PROGRAM FILES\MICROSOFT SDKS\WINDOWS\V7.0A\INCLUDE\QOS.H
C:\PROGRAM FILES\MICROSOFT VISUAL STUDIO 10.0\VC\ATLMFC\INCLUDE\ATLIFACE.H
C:\PROGRAM FILES\MICROSOFT SDKS\WINDOWS\V7.0A\INCLUDE\OLEACC.H
C:\PROGRAM FILES\MICROSOFT VISUAL STUDIO 10.0\VC\INCLUDE\PROCESS.H
C:\PROGRAM FILES\MICROSOFT SDKS\WINDOWS\V7.0A\INCLUDE\SHLWAPI.H
C:\PROGRAM FILES\MICROSOFT VISUAL STUDIO 10.0\VC\ATLMFC\INCLUDE\STATREG.H
C:\PROGRAM FILES\MICROSOFT SDKS\WINDOWS\V7.0A\INCLUDE\TPCSHRD.H
C:\PROGRAM FILES\MICROSOFT VISUAL STUDIO 10.0\VC\ATLMFC\INCLUDE\AFXCOMCTL32.H
C:\PROGRAM FILES\MICROSOFT SDKS\WINDOWS\V7.0A\INCLUDE\VSSYM32.H
C:\PROGRAM FILES\MICROSOFT SDKS\WINDOWS\V7.0A\INCLUDE\VSSTYLE.H
C:\PROGRAM FILES\MICROSOFT SDKS\WINDOWS\V7.0A\INCLUDE\WS2IPDEF.H
C:\PROGRAM FILES\MICROSOFT SDKS\WINDOWS\V7.0A\INCLUDE\IN6ADDR.H
C:\PROGRAM FILES\MICROSOFT SDKS\WINDOWS\V7.0A\INCLUDE\WINDNS.H
C:\PROGRAM FILES\MICROSOFT SDKS\WINDOWS\V7.0A\INCLUDE\IPHLPAPI.H
C:\PROGRAM FILES\MICROSOFT SDKS\WINDOWS\V7.0A\INCLUDE\IPRTRMIB.H
C:\PROGRAM FILES\MICROSOFT SDKS\WINDOWS\V7.0A\INCLUDE\MPRAPI.H
C:\PROGRAM FILES\MICROSOFT SDKS\WINDOWS\V7.0A\INCLUDE\LMCONS.H
C:\PROGRAM FILES\MICROSOFT SDKS\WINDOWS\V7.0A\INCLUDE\RAS.H
C:\PROGRAM FILES\MICROSOFT SDKS\WINDOWS\V7.0A\INCLUDE\WINCRYPT.H
C:\PROGRAM FILES\MICROSOFT SDKS\WINDOWS\V7.0A\INCLUDE\BCRYPT.H
C:\PROGRAM FILES\MICROSOFT SDKS\WINDOWS\V7.0A\INCLUDE\NCRYPT.H
C:\PROGRAM FILES\MICROSOFT SDKS\WINDOWS\V7.0A\INCLUDE\IPIFCONS.H
C:\PROGRAM FILES\MICROSOFT SDKS\WINDOWS\V7.0A\INCLUDE\IPMIB.H
C:\PROGRAM FILES\MICROSOFT SDKS\WINDOWS\V7.0A\INCLUDE\IFMIB.H
C:\PROGRAM FILES\MICROSOFT SDKS\WINDOWS\V7.0A\INCLUDE\IFDEF.H
C:\PROGRAM FILES\MICROSOFT SDKS\WINDOWS\V7.0A\INCLUDE\NLDEF.H
C:\PROGRAM FILES\MICROSOFT SDKS\WINDOWS\V7.0A\INCLUDE\TCPMIB.H
C:\PROGRAM FILES\MICROSOFT SDKS\WINDOWS\V7.0A\INCLUDE\UDPMIB.H
C:\PROGRAM FILES\MICROSOFT SDKS\WINDOWS\V7.0A\INCLUDE\IPEXPORT.H
C:\PROGRAM FILES\MICROSOFT SDKS\WINDOWS\V7.0A\INCLUDE\PACKON.H
C:\PROGRAM FILES\MICROSOFT SDKS\WINDOWS\V7.0A\INCLUDE\PACKOFF.H
C:\PROGRAM FILES\MICROSOFT SDKS\WINDOWS\V7.0A\INCLUDE\IPTYPES.H
C:\PROGRAM FILES\MICROSOFT SDKS\WINDOWS\V7.0A\INCLUDE\TCPESTATS.H
C:\PROGRAM FILES\MICROSOFT SDKS\WINDOWS\V7.0A\INCLUDE\NETIOAPI.H
C:\PROGRAM FILES\MICROSOFT SDKS\WINDOWS\V7.0A\INCLUDE\NTDDNDIS.H
C:\PROGRAM FILES\MICROSOFT SDKS\WINDOWS\V7.0A\INCLUDE\DEVPKEY.H
C:\PROGRAM FILES\MICROSOFT SDKS\WINDOWS\V7.0A\INCLUDE\DEVPROPDEF.H
C:\PROGRAM FILES\MICROSOFT SDKS\WINDOWS\V7.0A\INCLUDE\PCIPROP.H
C:\PROGRAM FILES\MICROSOFT SDKS\WINDOWS\V7.0A\INCLUDE\WINDOT11.H
C:\PROGRAM FILES\MICROSOFT SDKS\WINDOWS\V7.0A\INCLUDE\WLANTYPES.H
C:\PROGRAM FILES\MICROSOFT SDKS\WINDOWS\V7.0A\INCLUDE\HTMLHELP.H
C:\PROGRAM FILES\MICROSOFT VISUAL STUDIO 10.0\VC\ATLMFC\INCLUDE\AFXMSG_.H
C:\PROGRAM FILES\MICROSOFT VISUAL STUDIO 10.0\VC\ATLMFC\INCLUDE\AFXDD_.H
C:\PROGRAM FILES\MICROSOFT VISUAL STUDIO 10.0\VC\ATLMFC\INCLUDE\AFXDLL_.H
C:\PROGRAM FILES\MICROSOFT VISUAL STUDIO 10.0\VC\ATLMFC\INCLUDE\AFXCOMCTL32.INL
C:\PROGRAM FILES\MICROSOFT VISUAL STUDIO 10.0\VC\ATLMFC\INCLUDE\AFXWIN4.INL
C:\PROGRAM FILES\MICROSOFT VISUAL STUDIO 10.0\VC\ATLMFC\INCLUDE\AFXEXT.H
C:\PROGRAM FILES\MICROSOFT VISUAL STUDIO 10.0\VC\ATLMFC\INCLUDE\AFXDLGS.H
C:\PROGRAM FILES\MICROSOFT SDKS\WINDOWS\V7.0A\INCLUDE\RICHEDIT.H
C:\PROGRAM FILES\MICROSOFT SDKS\WINDOWS\V7.0A\INCLUDE\UXTHEME.H
C:\PROGRAM FILES\MICROSOFT VISUAL STUDIO 10.0\VC\ATLMFC\INCLUDE\AFXDISP.H
C:\PROGRAM FILES\MICROSOFT SDKS\WINDOWS\V7.0A\INCLUDE\SHLOBJ.H
C:\PROGRAM FILES\MICROSOFT SDKS\WINDOWS\V7.0A\INCLUDE\SHLGUID.H
C:\PROGRAM FILES\MICROSOFT SDKS\WINDOWS\V7.0A\INCLUDE\ISGUIDS.H
C:\PROGRAM FILES\MICROSOFT SDKS\WINDOWS\V7.0A\INCLUDE\EXDISP.H
C:\PROGRAM FILES\MICROSOFT SDKS\WINDOWS\V7.0A\INCLUDE\SHLDISP.H
C:\PROGRAM FILES\MICROSOFT SDKS\WINDOWS\V7.0A\INCLUDE\KNOWNFOLDERS.H
C:\PROGRAM FILES\MICROSOFT VISUAL STUDIO 10.0\VC\ATLMFC\INCLUDE\ATLCOMTIME.H
C:\PROGRAM FILES\MICROSOFT VISUAL STUDIO 10.0\VC\ATLMFC\INCLUDE\AFXOCC.H
C:\PROGRAM FILES\MICROSOFT VISUAL STUDIO 10.0\VC\ATLMFC\INCLUDE\AFXTEMPL.H
C:\PROGRAM FILES\MICROSOFT VISUAL STUDIO 10.0\VC\ATLMFC\INCLUDE\AFXPLEX_.H
C:\PROGRAM FILES\MICROSOFT VISUAL STUDIO 10.0\VC\ATLMFC\INCLUDE\OLEBIND.H
C:\PROGRAM FILES\MICROSOFT VISUAL STUDIO 10.0\VC\ATLMFC\INCLUDE\OCDBID.H
C:\PROGRAM FILES\MICROSOFT VISUAL STUDIO 10.0\VC\ATLMFC\INCLUDE\OCDB.H
C:\PROGRAM FILES\MICROSOFT VISUAL STUDIO 10.0\VC\ATLMFC\INCLUDE\AFXDTCTL.H
C:\PROGRAM FILES\MICROSOFT VISUAL STUDIO 10.0\VC\ATLMFC\INCLUDE\AFXCMN.H
C:\PROGRAM FILES\MICROSOFT VISUAL STUDIO 10.0\VC\ATLMFC\INCLUDE\AFXCMN3.INL
C:\PROGRAM FILES\MICROSOFT VISUAL STUDIO 10.0\VC\ATLMFC\INCLUDE\AFXCONTROLBARS.H
C:\PROGRAM FILES\MICROSOFT VISUAL STUDIO 10.0\VC\ATLMFC\INCLUDE\AFXCONTROLBARUTIL.H
C:\PROGRAM FILES\MICROSOFT VISUAL STUDIO 10.0\VC\ATLMFC\INCLUDE\AFXUSERTOOLSMANAGER.H
C:\PROGRAM FILES\MICROSOFT VISUAL STUDIO 10.0\VC\ATLMFC\INCLUDE\AFXUSERTOOL.H
C:\PROGRAM FILES\MICROSOFT VISUAL STUDIO 10.0\VC\ATLMFC\INCLUDE\AFXTOOLBAR.H
C:\PROGRAM FILES\MICROSOFT VISUAL STUDIO 10.0\VC\ATLMFC\INCLUDE\AFXTOOLBARDROPTARGET.H
C:\PROGRAM FILES\MICROSOFT VISUAL STUDIO 10.0\VC\ATLMFC\INCLUDE\AFXOLE.H
C:\PROGRAM FILES\MICROSOFT VISUAL STUDIO 10.0\VC\ATLMFC\INCLUDE\AFXCOM_.H
C:\PROGRAM FILES\MICROSOFT VISUAL STUDIO 10.0\VC\ATLMFC\INCLUDE\AFXTOOLBARDROPSOURCE.H
C:\PROGRAM FILES\MICROSOFT VISUAL STUDIO 10.0\VC\ATLMFC\INCLUDE\AFXTOOLBARIMAGES.H
C:\PROGRAM FILES\MICROSOFT VISUAL STUDIO 10.0\VC\ATLMFC\INCLUDE\AFXMT.H
C:\PROGRAM FILES\MICROSOFT VISUAL STUDIO 10.0\VC\ATLMFC\INCLUDE\ATLIMAGE.H
C:\PROGRAM FILES\MICROSOFT SDKS\WINDOWS\V7.0A\INCLUDE\GDIPLUS.H
C:\PROGRAM FILES\MICROSOFT SDKS\WINDOWS\V7.0A\INCLUDE\GDIPLUSMEM.H
C:\PROGRAM FILES\MICROSOFT SDKS\WINDOWS\V7.0A\INCLUDE\GDIPLUSBASE.H
C:\PROGRAM FILES\MICROSOFT SDKS\WINDOWS\V7.0A\INCLUDE\GDIPLUSENUMS.H
C:\PROGRAM FILES\MICROSOFT SDKS\WINDOWS\V7.0A\INCLUDE\GDIPLUSTYPES.H
C:\PROGRAM FILES\MICROSOFT SDKS\WINDOWS\V7.0A\INCLUDE\GDIPLUSINIT.H
C:\PROGRAM FILES\MICROSOFT SDKS\WINDOWS\V7.0A\INCLUDE\GDIPLUSPIXELFORMATS.H
C:\PROGRAM FILES\MICROSOFT SDKS\WINDOWS\V7.0A\INCLUDE\GDIPLUSCOLOR.H
C:\PROGRAM FILES\MICROSOFT SDKS\WINDOWS\V7.0A\INCLUDE\GDIPLUSMETAHEADER.H
C:\PROGRAM FILES\MICROSOFT SDKS\WINDOWS\V7.0A\INCLUDE\GDIPLUSIMAGING.H
C:\PROGRAM FILES\MICROSOFT SDKS\WINDOWS\V7.0A\INCLUDE\GDIPLUSCOLORMATRIX.H
C:\PROGRAM FILES\MICROSOFT SDKS\WINDOWS\V7.0A\INCLUDE\GDIPLUSGPSTUBS.H
C:\PROGRAM FILES\MICROSOFT SDKS\WINDOWS\V7.0A\INCLUDE\GDIPLUSHEADERS.H
C:\PROGRAM FILES\MICROSOFT SDKS\WINDOWS\V7.0A\INCLUDE\GDIPLUSFLAT.H
C:\PROGRAM FILES\MICROSOFT SDKS\WINDOWS\V7.0A\INCLUDE\GDIPLUSIMAGEATTRIBUTES.H
C:\PROGRAM FILES\MICROSOFT SDKS\WINDOWS\V7.0A\INCLUDE\GDIPLUSMATRIX.H
C:\PROGRAM FILES\MICROSOFT SDKS\WINDOWS\V7.0A\INCLUDE\GDIPLUSBRUSH.H
C:\PROGRAM FILES\MICROSOFT SDKS\WINDOWS\V7.0A\INCLUDE\GDIPLUSPEN.H
C:\PROGRAM FILES\MICROSOFT SDKS\WINDOWS\V7.0A\INCLUDE\GDIPLUSSTRINGFORMAT.H
C:\PROGRAM FILES\MICROSOFT SDKS\WINDOWS\V7.0A\INCLUDE\GDIPLUSPATH.H
C:\PROGRAM FILES\MICROSOFT SDKS\WINDOWS\V7.0A\INCLUDE\GDIPLUSLINECAPS.H
C:\PROGRAM FILES\MICROSOFT SDKS\WINDOWS\V7.0A\INCLUDE\GDIPLUSGRAPHICS.H
C:\PROGRAM FILES\MICROSOFT SDKS\WINDOWS\V7.0A\INCLUDE\GDIPLUSMETAFILE.H
C:\PROGRAM FILES\MICROSOFT SDKS\WINDOWS\V7.0A\INCLUDE\GDIPLUSCACHEDBITMAP.H
C:\PROGRAM FILES\MICROSOFT SDKS\WINDOWS\V7.0A\INCLUDE\GDIPLUSREGION.H
C:\PROGRAM FILES\MICROSOFT SDKS\WINDOWS\V7.0A\INCLUDE\GDIPLUSFONTCOLLECTION.H
C:\PROGRAM FILES\MICROSOFT SDKS\WINDOWS\V7.0A\INCLUDE\GDIPLUSFONTFAMILY.H
C:\PROGRAM FILES\MICROSOFT SDKS\WINDOWS\V7.0A\INCLUDE\GDIPLUSFONT.H
C:\PROGRAM FILES\MICROSOFT SDKS\WINDOWS\V7.0A\INCLUDE\GDIPLUSBITMAP.H
C:\PROGRAM FILES\MICROSOFT SDKS\WINDOWS\V7.0A\INCLUDE\GDIPLUSIMAGECODEC.H
C:\PROGRAM FILES\MICROSOFT VISUAL STUDIO 10.0\VC\ATLMFC\INCLUDE\AFXTOOLBARBUTTON.H
C:\PROGRAM FILES\MICROSOFT VISUAL STUDIO 10.0\VC\ATLMFC\INCLUDE\AFXCONTROLBARIMPL.H
C:\PROGRAM FILES\MICROSOFT VISUAL STUDIO 10.0\VC\ATLMFC\INCLUDE\AFXCMDUSAGECOUNT.H
C:\PROGRAM FILES\MICROSOFT VISUAL STUDIO 10.0\VC\ATLMFC\INCLUDE\AFXCOMMANDMANAGER.H
C:\PROGRAM FILES\MICROSOFT VISUAL STUDIO 10.0\VC\ATLMFC\INCLUDE\AFXVISUALMANAGER.H
C:\PROGRAM FILES\MICROSOFT VISUAL STUDIO 10.0\VC\ATLMFC\INCLUDE\AFXGLOBALS.H
C:\PROGRAM FILES\MICROSOFT VISUAL STUDIO 10.0\VC\ATLMFC\INCLUDE\AFXACCESSIBILITY.H
C:\PROGRAM FILES\MICROSOFT VISUAL STUDIO 10.0\VC\ATLMFC\INCLUDE\AFXBASETOOLBAR.H
C:\PROGRAM FILES\MICROSOFT VISUAL STUDIO 10.0\VC\ATLMFC\INCLUDE\AFXPANE.H
C:\PROGRAM FILES\MICROSOFT VISUAL STUDIO 10.0\VC\ATLMFC\INCLUDE\AFXBASEPANE.H
C:\PROGRAM FILES\MICROSOFT VISUAL STUDIO 10.0\VC\ATLMFC\INCLUDE\AFXRECENTDOCKSITEINFO.H
C:\PROGRAM FILES\MICROSOFT VISUAL STUDIO 10.0\VC\ATLMFC\INCLUDE\AFXDRAGFRAMEIMPL.H
C:\PROGRAM FILES\MICROSOFT VISUAL STUDIO 10.0\VC\ATLMFC\INCLUDE\AFXSTATUSBAR.H
C:\PROGRAM FILES\MICROSOFT VISUAL STUDIO 10.0\VC\ATLMFC\INCLUDE\AFXMENUBAR.H
C:\PROGRAM FILES\MICROSOFT VISUAL STUDIO 10.0\VC\ATLMFC\INCLUDE\AFXPANEDIALOG.H
C:\PROGRAM FILES\MICROSOFT VISUAL STUDIO 10.0\VC\ATLMFC\INCLUDE\AFXDOCKABLEPANE.H
C:\PROGRAM FILES\MICROSOFT VISUAL STUDIO 10.0\VC\ATLMFC\INCLUDE\AFXMENUIMAGES.H
C:\PROGRAM FILES\MICROSOFT VISUAL STUDIO 10.0\VC\ATLMFC\INCLUDE\AFXPANECONTAINER.H
C:\PROGRAM FILES\MICROSOFT VISUAL STUDIO 10.0\VC\ATLMFC\INCLUDE\AFXCAPTIONBUTTON.H
C:\PROGRAM FILES\MICROSOFT VISUAL STUDIO 10.0\VC\ATLMFC\INCLUDE\AFXMULTIPANEFRAMEWND.H
C:\PROGRAM FILES\MICROSOFT VISUAL STUDIO 10.0\VC\ATLMFC\INCLUDE\AFXPANEFRAMEWND.H
C:\PROGRAM FILES\MICROSOFT VISUAL STUDIO 10.0\VC\ATLMFC\INCLUDE\AFXPANECONTAINERMANAGER.H
C:\PROGRAM FILES\MICROSOFT VISUAL STUDIO 10.0\VC\ATLMFC\INCLUDE\AFXPANEDIVIDER.H
C:\PROGRAM FILES\MICROSOFT VISUAL STUDIO 10.0\VC\ATLMFC\INCLUDE\AFXOUTLOOKBAR.H
C:\PROGRAM FILES\MICROSOFT VISUAL STUDIO 10.0\VC\ATLMFC\INCLUDE\AFXBASETABBEDPANE.H
C:\PROGRAM FILES\MICROSOFT VISUAL STUDIO 10.0\VC\ATLMFC\INCLUDE\AFXBASETABCTRL.H
C:\PROGRAM FILES\MICROSOFT VISUAL STUDIO 10.0\VC\ATLMFC\INCLUDE\AFXOUTLOOKBARTABCTRL.H
C:\PROGRAM FILES\MICROSOFT VISUAL STUDIO 10.0\VC\ATLMFC\INCLUDE\AFXRIBBONRES.H
C:\PROGRAM FILES\MICROSOFT VISUAL STUDIO 10.0\VC\ATLMFC\INCLUDE\AFXBUTTON.H
C:\PROGRAM FILES\MICROSOFT VISUAL STUDIO 10.0\VC\ATLMFC\INCLUDE\AFXTOOLBARSLISTCHECKBOX.H
C:\PROGRAM FILES\MICROSOFT VISUAL STUDIO 10.0\VC\ATLMFC\INCLUDE\AFXCOLORBAR.H
C:\PROGRAM FILES\MICROSOFT VISUAL STUDIO 10.0\VC\ATLMFC\INCLUDE\AFXPOPUPMENUBAR.H
C:\PROGRAM FILES\MICROSOFT VISUAL STUDIO 10.0\VC\ATLMFC\INCLUDE\AFXCAPTIONBAR.H
C:\PROGRAM FILES\MICROSOFT VISUAL STUDIO 10.0\VC\ATLMFC\INCLUDE\AFXOUTLOOKBARPANE.H
C:\PROGRAM FILES\MICROSOFT VISUAL STUDIO 10.0\VC\ATLMFC\INCLUDE\AFXTABBEDPANE.H
C:\PROGRAM FILES\MICROSOFT VISUAL STUDIO 10.0\VC\ATLMFC\INCLUDE\AFXTABCTRL.H
C:\PROGRAM FILES\MICROSOFT VISUAL STUDIO 10.0\VC\ATLMFC\INCLUDE\AFXTASKSPANE.H
C:\PROGRAM FILES\MICROSOFT VISUAL STUDIO 10.0\VC\ATLMFC\INCLUDE\AFXCAPTIONMENUBUTTON.H
C:\PROGRAM FILES\MICROSOFT VISUAL STUDIO 10.0\VC\ATLMFC\INCLUDE\AFXTASKSPANEFRAMEWND.H
C:\PROGRAM FILES\MICROSOFT VISUAL STUDIO 10.0\VC\ATLMFC\INCLUDE\AFXRIBBONBAR.H
C:\PROGRAM FILES\MICROSOFT VISUAL STUDIO 10.0\VC\ATLMFC\INCLUDE\AFXRIBBONBUTTON.H
C:\PROGRAM FILES\MICROSOFT VISUAL STUDIO 10.0\VC\ATLMFC\INCLUDE\AFXBASERIBBONELEMENT.H
C:\PROGRAM FILES\MICROSOFT VISUAL STUDIO 10.0\VC\ATLMFC\INCLUDE\AFXRIBBONQUICKACCESSTOOLBAR.H
C:\PROGRAM FILES\MICROSOFT VISUAL STUDIO 10.0\VC\ATLMFC\INCLUDE\AFXRIBBONBUTTONSGROUP.H
C:\PROGRAM FILES\MICROSOFT VISUAL STUDIO 10.0\VC\ATLMFC\INCLUDE\AFXRIBBONCUSTOMIZEDIALOG.H
C:\PROGRAM FILES\MICROSOFT VISUAL STUDIO 10.0\VC\ATLMFC\INCLUDE\AFXPROPERTYSHEET.H
C:\PROGRAM FILES\MICROSOFT VISUAL STUDIO 10.0\VC\ATLMFC\INCLUDE\AFXDIALOGIMPL.H
C:\PROGRAM FILES\MICROSOFT VISUAL STUDIO 10.0\VC\ATLMFC\INCLUDE\AFXPROPERTYPAGE.H
C:\PROGRAM FILES\MICROSOFT VISUAL STUDIO 10.0\VC\ATLMFC\INCLUDE\AFXRIBBONCOMMANDSLISTBOX.H
C:\PROGRAM FILES\MICROSOFT VISUAL STUDIO 10.0\VC\ATLMFC\INCLUDE\AFXRIBBONKEYBOARDCUSTOMIZEDIALOG.H
C:\PROGRAM FILES\MICROSOFT VISUAL STUDIO 10.0\VC\ATLMFC\INCLUDE\AFXDIALOGEX.H
C:\PROGRAM FILES\MICROSOFT VISUAL STUDIO 10.0\VC\ATLMFC\INCLUDE\AFXACCELERATORKEYASSIGNCTRL.H
C:\PROGRAM FILES\MICROSOFT VISUAL STUDIO 10.0\VC\ATLMFC\INCLUDE\AFXACCELERATORKEY.H
C:\PROGRAM FILES\MICROSOFT VISUAL STUDIO 10.0\VC\ATLMFC\INCLUDE\AFXRIBBONPANEL.H
C:\PROGRAM FILES\MICROSOFT VISUAL STUDIO 10.0\VC\ATLMFC\INCLUDE\AFXRIBBONMAINPANEL.H
C:\PROGRAM FILES\MICROSOFT VISUAL STUDIO 10.0\VC\ATLMFC\INCLUDE\AFXRIBBONPANELMENU.H
C:\PROGRAM FILES\MICROSOFT VISUAL STUDIO 10.0\VC\ATLMFC\INCLUDE\AFXPOPUPMENU.H
C:\PROGRAM FILES\MICROSOFT VISUAL STUDIO 10.0\VC\ATLMFC\INCLUDE\AFXRIBBONMINITOOLBAR.H
C:\PROGRAM FILES\MICROSOFT VISUAL STUDIO 10.0\VC\ATLMFC\INCLUDE\AFXRIBBONCATEGORY.H
C:\PROGRAM FILES\MICROSOFT VISUAL STUDIO 10.0\VC\ATLMFC\INCLUDE\AFXRIBBONLABEL.H
C:\PROGRAM FILES\MICROSOFT VISUAL STUDIO 10.0\VC\ATLMFC\INCLUDE\AFXRIBBONCOLORBUTTON.H
C:\PROGRAM FILES\MICROSOFT VISUAL STUDIO 10.0\VC\ATLMFC\INCLUDE\AFXRIBBONPALETTEGALLERY.H
C:\PROGRAM FILES\MICROSOFT VISUAL STUDIO 10.0\VC\ATLMFC\INCLUDE\AFXTOOLBARMENUBUTTON.H
C:\PROGRAM FILES\MICROSOFT VISUAL STUDIO 10.0\VC\ATLMFC\INCLUDE\AFXRIBBONEDIT.H
C:\PROGRAM FILES\MICROSOFT VISUAL STUDIO 10.0\VC\ATLMFC\INCLUDE\AFXRIBBONCOMBOBOX.H
C:\PROGRAM FILES\MICROSOFT VISUAL STUDIO 10.0\VC\ATLMFC\INCLUDE\AFXTOOLBARFONTCOMBOBOX.H
C:\PROGRAM FILES\MICROSOFT VISUAL STUDIO 10.0\VC\ATLMFC\INCLUDE\AFXTOOLBARCOMBOBOXBUTTON.H
C:\PROGRAM FILES\MICROSOFT VISUAL STUDIO 10.0\VC\ATLMFC\INCLUDE\AFXRIBBONCHECKBOX.H
C:\PROGRAM FILES\MICROSOFT VISUAL STUDIO 10.0\VC\ATLMFC\INCLUDE\AFXRIBBONSTATUSBAR.H
C:\PROGRAM FILES\MICROSOFT VISUAL STUDIO 10.0\VC\ATLMFC\INCLUDE\AFXRIBBONSTATUSBARPANE.H
C:\PROGRAM FILES\MICROSOFT VISUAL STUDIO 10.0\VC\ATLMFC\INCLUDE\AFXRIBBONSLIDER.H
C:\PROGRAM FILES\MICROSOFT VISUAL STUDIO 10.0\VC\ATLMFC\INCLUDE\AFXRIBBONPROGRESSBAR.H
C:\PROGRAM FILES\MICROSOFT VISUAL STUDIO 10.0\VC\ATLMFC\INCLUDE\AFXRIBBONLINKCTRL.H
C:\PROGRAM FILES\MICROSOFT VISUAL STUDIO 10.0\VC\ATLMFC\INCLUDE\AFXRIBBONUNDOBUTTON.H
C:\PROGRAM FILES\MICROSOFT VISUAL STUDIO 10.0\VC\ATLMFC\INCLUDE\AFXTOOLBAREDITBOXBUTTON.H
C:\PROGRAM FILES\MICROSOFT VISUAL STUDIO 10.0\VC\ATLMFC\INCLUDE\AFXEDITBROWSECTRL.H
C:\PROGRAM FILES\MICROSOFT VISUAL STUDIO 10.0\VC\ATLMFC\INCLUDE\AFXTOOLBARSPINEDITBOXBUTTON.H
C:\PROGRAM FILES\MICROSOFT VISUAL STUDIO 10.0\VC\ATLMFC\INCLUDE\AFXSPINBUTTONCTRL.H
C:\PROGRAM FILES\MICROSOFT VISUAL STUDIO 10.0\VC\ATLMFC\INCLUDE\AFXTOOLBARSYSTEMMENUBUTTON.H
C:\PROGRAM FILES\MICROSOFT VISUAL STUDIO 10.0\VC\ATLMFC\INCLUDE\AFXTOOLBARDATETIMECTRL.H
C:\PROGRAM FILES\MICROSOFT VISUAL STUDIO 10.0\VC\ATLMFC\INCLUDE\AFXDROPDOWNTOOLBAR.H
C:\PROGRAM FILES\MICROSOFT VISUAL STUDIO 10.0\VC\ATLMFC\INCLUDE\AFXCOLORMENUBUTTON.H
C:\PROGRAM FILES\MICROSOFT VISUAL STUDIO 10.0\VC\ATLMFC\INCLUDE\AFXOUTLOOKBARPANEBUTTON.H
C:\PROGRAM FILES\MICROSOFT VISUAL STUDIO 10.0\VC\ATLMFC\INCLUDE\AFXDROPDOWNLISTBOX.H
C:\PROGRAM FILES\MICROSOFT VISUAL STUDIO 10.0\VC\ATLMFC\INCLUDE\AFXAUTOHIDEBUTTON.H
C:\PROGRAM FILES\MICROSOFT VISUAL STUDIO 10.0\VC\ATLMFC\INCLUDE\AFXAUTOHIDEBAR.H
C:\PROGRAM FILES\MICROSOFT VISUAL STUDIO 10.0\VC\ATLMFC\INCLUDE\AFXFRAMEWNDEX.H
C:\PROGRAM FILES\MICROSOFT VISUAL STUDIO 10.0\VC\ATLMFC\INCLUDE\AFXFRAMEIMPL.H
C:\PROGRAM FILES\MICROSOFT VISUAL STUDIO 10.0\VC\ATLMFC\INCLUDE\AFXDOCKINGMANAGER.H
C:\PROGRAM FILES\MICROSOFT VISUAL STUDIO 10.0\VC\ATLMFC\INCLUDE\AFXSMARTDOCKINGMANAGER.H
C:\PROGRAM FILES\MICROSOFT VISUAL STUDIO 10.0\VC\ATLMFC\INCLUDE\AFXSMARTDOCKINGGUIDE.H
C:\PROGRAM FILES\MICROSOFT VISUAL STUDIO 10.0\VC\ATLMFC\INCLUDE\AFXSMARTDOCKINGHIGHLIGHTERWND.H
C:\PROGRAM FILES\MICROSOFT VISUAL STUDIO 10.0\VC\ATLMFC\INCLUDE\AFXFULLSCREENIMPL.H
C:\PROGRAM FILES\MICROSOFT VISUAL STUDIO 10.0\VC\ATLMFC\INCLUDE\AFXMDIFRAMEWNDEX.H
C:\PROGRAM FILES\MICROSOFT VISUAL STUDIO 10.0\VC\ATLMFC\INCLUDE\AFXMDICLIENTAREAWND.H
C:\PROGRAM FILES\MICROSOFT VISUAL STUDIO 10.0\VC\ATLMFC\INCLUDE\AFXMDICHILDWNDEX.H
C:\PROGRAM FILES\MICROSOFT VISUAL STUDIO 10.0\VC\ATLMFC\INCLUDE\AFXOLEIPFRAMEWNDEX.H
C:\PROGRAM FILES\MICROSOFT VISUAL STUDIO 10.0\VC\ATLMFC\INCLUDE\AFXOLEDOCIPFRAMEWNDEX.H
C:\PROGRAM FILES\MICROSOFT VISUAL STUDIO 10.0\VC\ATLMFC\INCLUDE\AFXDOCOB.H
C:\PROGRAM FILES\MICROSOFT VISUAL STUDIO 10.0\VC\ATLMFC\INCLUDE\AFXOLECNTRFRAMEWNDEX.H
C:\PROGRAM FILES\MICROSOFT VISUAL STUDIO 10.0\VC\ATLMFC\INCLUDE\AFXPRIV.H
C:\PROGRAM FILES\MICROSOFT VISUAL STUDIO 10.0\VC\ATLMFC\INCLUDE\AFXADV.H
C:\PROGRAM FILES\MICROSOFT VISUAL STUDIO 10.0\VC\ATLMFC\INCLUDE\AFXCONV.H
C:\PROGRAM FILES\MICROSOFT VISUAL STUDIO 10.0\VC\ATLMFC\INCLUDE\AFXPRIV2.H
C:\PROGRAM FILES\MICROSOFT VISUAL STUDIO 10.0\VC\ATLMFC\INCLUDE\AFXTOOLBARSCUSTOMIZEDIALOG.H
C:\PROGRAM FILES\MICROSOFT VISUAL STUDIO 10.0\VC\ATLMFC\INCLUDE\AFXTOOLBARSLISTPROPERTYPAGE.H
C:\PROGRAM FILES\MICROSOFT VISUAL STUDIO 10.0\VC\ATLMFC\INCLUDE\AFXTOOLBARBUTTONSLISTBUTTON.H
C:\PROGRAM FILES\MICROSOFT VISUAL STUDIO 10.0\VC\ATLMFC\INCLUDE\AFXTOOLBARSCOMMANDSLISTBOX.H
C:\PROGRAM FILES\MICROSOFT VISUAL STUDIO 10.0\VC\ATLMFC\INCLUDE\AFXTOOLBARSTOOLSPROPERTYPAGE.H
C:\PROGRAM FILES\MICROSOFT VISUAL STUDIO 10.0\VC\ATLMFC\INCLUDE\AFXVSLISTBOX.H
C:\PROGRAM FILES\MICROSOFT VISUAL STUDIO 10.0\VC\ATLMFC\INCLUDE\AFXMENUBUTTON.H
C:\PROGRAM FILES\MICROSOFT VISUAL STUDIO 10.0\VC\ATLMFC\INCLUDE\AFXTOOLBARSMENUPROPERTYPAGE.H
C:\PROGRAM FILES\MICROSOFT VISUAL STUDIO 10.0\VC\ATLMFC\INCLUDE\AFXMOUSEPROPERTYPAGE.H
C:\PROGRAM FILES\MICROSOFT VISUAL STUDIO 10.0\VC\ATLMFC\INCLUDE\AFXTOOLBARSKEYBOARDPROPERTYPAGE.H
C:\PROGRAM FILES\MICROSOFT VISUAL STUDIO 10.0\VC\ATLMFC\INCLUDE\AFXTOOLBARSOPTIONSPROPERTYPAGE.H
C:\PROGRAM FILES\MICROSOFT VISUAL STUDIO 10.0\VC\ATLMFC\INCLUDE\AFXCUSTOMIZEMENUBUTTON.H
C:\PROGRAM FILES\MICROSOFT VISUAL STUDIO 10.0\VC\ATLMFC\INCLUDE\AFXCONTEXTMENUMANAGER.H
C:\PROGRAM FILES\MICROSOFT VISUAL STUDIO 10.0\VC\ATLMFC\INCLUDE\AFXKEYBOARDMANAGER.H
C:\PROGRAM FILES\MICROSOFT VISUAL STUDIO 10.0\VC\ATLMFC\INCLUDE\AFXMOUSEMANAGER.H
C:\PROGRAM FILES\MICROSOFT VISUAL STUDIO 10.0\VC\ATLMFC\INCLUDE\AFXWINAPPEX.H
C:\PROGRAM FILES\MICROSOFT VISUAL STUDIO 10.0\VC\ATLMFC\INCLUDE\AFXSETTINGSSTORE.H
C:\PROGRAM FILES\MICROSOFT VISUAL STUDIO 10.0\VC\ATLMFC\INCLUDE\AFXREBARSTATE.H
C:\PROGRAM FILES\MICROSOFT VISUAL STUDIO 10.0\VC\ATLMFC\INCLUDE\AFXMENUTEAROFFMANAGER.H
C:\PROGRAM FILES\MICROSOFT VISUAL STUDIO 10.0\VC\ATLMFC\INCLUDE\AFXDRAWMANAGER.H
C:\PROGRAM FILES\MICROSOFT VISUAL STUDIO 10.0\VC\ATLMFC\INCLUDE\AFXDOCKINGPANESROW.H
C:\PROGRAM FILES\MICROSOFT VISUAL STUDIO 10.0\VC\ATLMFC\INCLUDE\AFXTOOLTIPMANAGER.H
C:\PROGRAM FILES\MICROSOFT VISUAL STUDIO 10.0\VC\ATLMFC\INCLUDE\AFXTOOLTIPCTRL.H
C:\PROGRAM FILES\MICROSOFT VISUAL STUDIO 10.0\VC\ATLMFC\INCLUDE\AFXCONTROLRENDERER.H
C:\PROGRAM FILES\MICROSOFT VISUAL STUDIO 10.0\VC\ATLMFC\INCLUDE\AFXDOCKABLEPANEADAPTER.H
C:\PROGRAM FILES\MICROSOFT VISUAL STUDIO 10.0\VC\ATLMFC\INCLUDE\AFXDOCKSITE.H
C:\PROGRAM FILES\MICROSOFT VISUAL STUDIO 10.0\VC\ATLMFC\INCLUDE\AFXCOLORBUTTON.H
C:\PROGRAM FILES\MICROSOFT VISUAL STUDIO 10.0\VC\ATLMFC\INCLUDE\AFXLINKCTRL.H
C:\PROGRAM FILES\MICROSOFT VISUAL STUDIO 10.0\VC\ATLMFC\INCLUDE\AFXCOLORPICKERCTRL.H
C:\PROGRAM FILES\MICROSOFT VISUAL STUDIO 10.0\VC\ATLMFC\INCLUDE\AFXFONTCOMBOBOX.H
C:\PROGRAM FILES\MICROSOFT VISUAL STUDIO 10.0\VC\ATLMFC\INCLUDE\AFXREBAR.H
C:\PROGRAM FILES\MICROSOFT VISUAL STUDIO 10.0\VC\ATLMFC\INCLUDE\AFXSHELLTREECTRL.H
C:\PROGRAM FILES\MICROSOFT VISUAL STUDIO 10.0\VC\ATLMFC\INCLUDE\AFXSHELLMANAGER.H
C:\PROGRAM FILES\MICROSOFT VISUAL STUDIO 10.0\VC\ATLMFC\INCLUDE\AFXSHELLLISTCTRL.H
C:\PROGRAM FILES\MICROSOFT VISUAL STUDIO 10.0\VC\ATLMFC\INCLUDE\AFXLISTCTRL.H
C:\PROGRAM FILES\MICROSOFT VISUAL STUDIO 10.0\VC\ATLMFC\INCLUDE\AFXHEADERCTRL.H
C:\PROGRAM FILES\MICROSOFT VISUAL STUDIO 10.0\VC\ATLMFC\INCLUDE\AFXPROPERTYGRIDCTRL.H
C:\PROGRAM FILES\MICROSOFT VISUAL STUDIO 10.0\VC\INCLUDE\COMDEF.H
C:\PROGRAM FILES\MICROSOFT VISUAL STUDIO 10.0\VC\INCLUDE\COMUTIL.H
C:\PROGRAM FILES\MICROSOFT VISUAL STUDIO 10.0\VC\INCLUDE\ASSERT.H
C:\PROGRAM FILES\MICROSOFT VISUAL STUDIO 10.0\VC\INCLUDE\COMIP.H
C:\PROGRAM FILES\MICROSOFT VISUAL STUDIO 10.0\VC\INCLUDE\COMDEFSP.H
C:\PROGRAM FILES\MICROSOFT VISUAL STUDIO 10.0\VC\ATLMFC\INCLUDE\AFXCOLORPOPUPMENU.H
C:\PROGRAM FILES\MICROSOFT VISUAL STUDIO 10.0\VC\ATLMFC\INCLUDE\AFXPROPERTYGRIDTOOLTIPCTRL.H
C:\PROGRAM FILES\MICROSOFT VISUAL STUDIO 10.0\VC\ATLMFC\INCLUDE\AFXMASKEDEDIT.H
C:\PROGRAM FILES\MICROSOFT VISUAL STUDIO 10.0\VC\ATLMFC\INCLUDE\AFXSPLITTERWNDEX.H
C:\PROGRAM FILES\MICROSOFT VISUAL STUDIO 10.0\VC\ATLMFC\INCLUDE\AFXDESKTOPALERTWND.H
C:\PROGRAM FILES\MICROSOFT VISUAL STUDIO 10.0\VC\ATLMFC\INCLUDE\AFXDESKTOPALERTDIALOG.H
C:\PROGRAM FILES\MICROSOFT VISUAL STUDIO 10.0\VC\ATLMFC\INCLUDE\AFXWINDOWSMANAGERDIALOG.H
C:\PROGRAM FILES\MICROSOFT VISUAL STUDIO 10.0\VC\ATLMFC\INCLUDE\AFXPREVIEWVIEWEX.H
C:\PROGRAM FILES\MICROSOFT VISUAL STUDIO 10.0\VC\ATLMFC\INCLUDE\AFXIMAGEEDITORDIALOG.H
C:\PROGRAM FILES\MICROSOFT VISUAL STUDIO 10.0\VC\ATLMFC\INCLUDE\AFXIMAGEPAINTAREA.H
C:\PROGRAM FILES\MICROSOFT VISUAL STUDIO 10.0\VC\ATLMFC\INCLUDE\AFXCOLORDIALOG.H
C:\PROGRAM FILES\MICROSOFT VISUAL STUDIO 10.0\VC\ATLMFC\INCLUDE\AFXSTANDARDCOLORSPROPERTYPAGE.H
C:\PROGRAM FILES\MICROSOFT VISUAL STUDIO 10.0\VC\ATLMFC\INCLUDE\AFXCUSTOMCOLORSPROPERTYPAGE.H
C:\PROGRAM FILES\MICROSOFT VISUAL STUDIO 10.0\VC\ATLMFC\INCLUDE\AFXKEYMAPDIALOG.H
C:\PROGRAM FILES\MICROSOFT VISUAL STUDIO 10.0\VC\ATLMFC\INCLUDE\AFXTABVIEW.H
C:\PROGRAM FILES\MICROSOFT VISUAL STUDIO 10.0\VC\ATLMFC\INCLUDE\AFXVISUALMANAGEROFFICEXP.H
C:\PROGRAM FILES\MICROSOFT VISUAL STUDIO 10.0\VC\ATLMFC\INCLUDE\AFXVISUALMANAGERWINDOWS.H
C:\PROGRAM FILES\MICROSOFT VISUAL STUDIO 10.0\VC\ATLMFC\INCLUDE\AFXVISUALMANAGEROFFICE2003.H
C:\PROGRAM FILES\MICROSOFT VISUAL STUDIO 10.0\VC\ATLMFC\INCLUDE\AFXVISUALMANAGERVS2005.H
C:\PROGRAM FILES\MICROSOFT VISUAL STUDIO 10.0\VC\ATLMFC\INCLUDE\AFXVISUALMANAGERVS2008.H
C:\PROGRAM FILES\MICROSOFT VISUAL STUDIO 10.0\VC\ATLMFC\INCLUDE\AFXVISUALMANAGEROFFICE2007.H
C:\PROGRAM FILES\MICROSOFT VISUAL STUDIO 10.0\VC\ATLMFC\INCLUDE\AFXVISUALMANAGERWINDOWS7.H
C:\PROGRAM FILES\MICROSOFT VISUAL STUDIO 10.0\VC\ATLMFC\INCLUDE\AFXOLESERVERDOCEX.H
C:\PROGRAM FILES\MICROSOFT VISUAL STUDIO 10.0\VC\ATLMFC\INCLUDE\AFXGLOBALUTILS.H
C:\PROGRAM FILES\MICROSOFT VISUAL STUDIO 10.0\VC\ATLMFC\INCLUDE\AFXSOCK.H
C:\PROGRAM FILES\MICROSOFT VISUAL STUDIO 10.0\VC\ATLMFC\INCLUDE\ATLSOCKET.H
C:\PROGRAM FILES\MICROSOFT SDKS\WINDOWS\V7.0A\INCLUDE\MSWSOCK.H
C:\PROGRAM FILES\MICROSOFT SDKS\WINDOWS\V7.0A\INCLUDE\MSWSOCKDEF.H
C:\PROGRAM FILES\MICROSOFT SDKS\WINDOWS\V7.0A\INCLUDE\WS2TCPIP.H
C:\PROGRAM FILES\MICROSOFT VISUAL STUDIO 10.0\VC\ATLMFC\INCLUDE\ATLSOCKET.INL
^C:\DOCUMENTS AND SETTINGS\ADMINISTRATEUR\BUREAU\SOCKETWINDOW\SOCKETWINDOW\SOCKETWINDOWDLG.CPP
C:\DOCUMENTS AND SETTINGS\ADMINISTRATEUR\BUREAU\SOCKETWINDOW\SOCKETWINDOW\DEBUG\SOCKETWINDOW.PCH
C:\DOCUMENTS AND SETTINGS\ADMINISTRATEUR\BUREAU\SOCKETWINDOW\SOCKETWINDOW\SOCKETWINDOW.H
C:\DOCUMENTS AND SETTINGS\ADMINISTRATEUR\BUREAU\SOCKETWINDOW\SOCKETWINDOW\RESOURCE.H
C:\DOCUMENTS AND SETTINGS\ADMINISTRATEUR\BUREAU\SOCKETWINDOW\SOCKETWINDOW\SOCKETWINDOWDLG.H
C:\DOCUMENTS AND SETTINGS\ADMINISTRATEUR\BUREAU\SOCKETWINDOW\SOCKETWINDOW\SOCKETSERVEUR.H
C:\DOCUMENTS AND SETTINGS\ADMINISTRATEUR\BUREAU\SOCKETWINDOW\SOCKETWINDOW\SOCKETSERVICE.H
C:\PROGRAM FILES\MICROSOFT VISUAL STUDIO 10.0\VC\BIN\1036\CLUI.DLL
C:\WINDOWS\SYSTEM32\RSAENH.DLL
C:\WINDOWS\SYSTEM32\CRYPT32.DLL
^C:\DOCUMENTS AND SETTINGS\ADMINISTRATEUR\BUREAU\SOCKETWINDOW\SOCKETWINDOW\SOCKETWINDOW.CPP
C:\DOCUMENTS AND SETTINGS\ADMINISTRATEUR\BUREAU\SOCKETWINDOW\SOCKETWINDOW\DEBUG\SOCKETWINDOW.PCH
C:\DOCUMENTS AND SETTINGS\ADMINISTRATEUR\BUREAU\SOCKETWINDOW\SOCKETWINDOW\SOCKETWINDOW.H
C:\DOCUMENTS AND SETTINGS\ADMINISTRATEUR\BUREAU\SOCKETWINDOW\SOCKETWINDOW\RESOURCE.H
C:\DOCUMENTS AND SETTINGS\ADMINISTRATEUR\BUREAU\SOCKETWINDOW\SOCKETWINDOW\SOCKETWINDOWDLG.H
C:\DOCUMENTS AND SETTINGS\ADMINISTRATEUR\BUREAU\SOCKETWINDOW\SOCKETWINDOW\SOCKETSERVEUR.H
C:\DOCUMENTS AND SETTINGS\ADMINISTRATEUR\BUREAU\SOCKETWINDOW\SOCKETWINDOW\SOCKETSERVICE.H
^C:\DOCUMENTS AND SETTINGS\ADMINISTRATEUR\BUREAU\SOCKETWINDOW\SOCKETWINDOW\SOCKETSERVICE.CPP
C:\DOCUMENTS AND SETTINGS\ADMINISTRATEUR\BUREAU\SOCKETWINDOW\SOCKETWINDOW\DEBUG\SOCKETWINDOW.PCH
C:\DOCUMENTS AND SETTINGS\ADMINISTRATEUR\BUREAU\SOCKETWINDOW\SOCKETWINDOW\SOCKETWINDOW.H
C:\DOCUMENTS AND SETTINGS\ADMINISTRATEUR\BUREAU\SOCKETWINDOW\SOCKETWINDOW\RESOURCE.H
C:\DOCUMENTS AND SETTINGS\ADMINISTRATEUR\BUREAU\SOCKETWINDOW\SOCKETWINDOW\SOCKETSERVICE.H
^C:\DOCUMENTS AND SETTINGS\ADMINISTRATEUR\BUREAU\SOCKETWINDOW\SOCKETWINDOW\SOCKETSERVEUR.CPP
C:\DOCUMENTS AND SETTINGS\ADMINISTRATEUR\BUREAU\SOCKETWINDOW\SOCKETWINDOW\DEBUG\SOCKETWINDOW.PCH
C:\DOCUMENTS AND SETTINGS\ADMINISTRATEUR\BUREAU\SOCKETWINDOW\SOCKETWINDOW\SOCKETWINDOW.H
C:\DOCUMENTS AND SETTINGS\ADMINISTRATEUR\BUREAU\SOCKETWINDOW\SOCKETWINDOW\RESOURCE.H
C:\DOCUMENTS AND SETTINGS\ADMINISTRATEUR\BUREAU\SOCKETWINDOW\SOCKETWINDOW\SOCKETSERVEUR.H
C:\DOCUMENTS AND SETTINGS\ADMINISTRATEUR\BUREAU\SOCKETWINDOW\SOCKETWINDOW\SOCKETSERVICE.H
^D:\LACQUEHAY\SOCKETWINDOW\SOCKETWINDOW\STDAFX.CPP
C:\PROGRAM FILES\MICROSOFT VISUAL STUDIO 10.0\VC\BIN\1036\CLUI.DLL
C:\WINDOWS\SYSTEM32\RSAENH.DLL
C:\WINDOWS\SYSTEM32\CRYPT32.DLL
C:\PROGRAM FILES\MICROSOFT VISUAL STUDIO 10.0\COMMON7\IDE\MSPDBSRV.EXE
D:\LACQUEHAY\SOCKETWINDOW\SOCKETWINDOW\STDAFX.H
D:\LACQUEHAY\SOCKETWINDOW\SOCKETWINDOW\TARGETVER.H
C:\PROGRAM FILES\MICROSOFT SDKS\WINDOWS\V7.0A\INCLUDE\SDKDDKVER.H
C:\PROGRAM FILES\MICROSOFT VISUAL STUDIO 10.0\VC\ATLMFC\INCLUDE\AFXWIN.H
C:\PROGRAM FILES\MICROSOFT VISUAL STUDIO 10.0\VC\ATLMFC\INCLUDE\AFX.H
C:\PROGRAM FILES\MICROSOFT VISUAL STUDIO 10.0\VC\INCLUDE\NEW.H
C:\PROGRAM FILES\MICROSOFT VISUAL STUDIO 10.0\VC\INCLUDE\CRTDEFS.H
C:\PROGRAM FILES\MICROSOFT VISUAL STUDIO 10.0\VC\INCLUDE\SAL.H
C:\PROGRAM FILES\MICROSOFT VISUAL STUDIO 10.0\VC\INCLUDE\CODEANALYSIS\SOURCEANNOTATIONS.H
C:\PROGRAM FILES\MICROSOFT VISUAL STUDIO 10.0\VC\INCLUDE\VADEFS.H
C:\PROGRAM FILES\MICROSOFT VISUAL STUDIO 10.0\VC\ATLMFC\INCLUDE\AFXVER_.H
C:\PROGRAM FILES\MICROSOFT VISUAL STUDIO 10.0\VC\ATLMFC\INCLUDE\AFXV_W32.H
C:\PROGRAM FILES\MICROSOFT SDKS\WINDOWS\V7.0A\INCLUDE\WINSDKVER.H
C:\PROGRAM FILES\MICROSOFT SDKS\WINDOWS\V7.0A\INCLUDE\WINDOWS.H
C:\PROGRAM FILES\MICROSOFT VISUAL STUDIO 10.0\VC\INCLUDE\EXCPT.H
C:\PROGRAM FILES\MICROSOFT VISUAL STUDIO 10.0\VC\INCLUDE\STDARG.H
C:\PROGRAM FILES\MICROSOFT SDKS\WINDOWS\V7.0A\INCLUDE\WINDEF.H
C:\PROGRAM FILES\MICROSOFT SDKS\WINDOWS\V7.0A\INCLUDE\WINNT.H
C:\PROGRAM FILES\MICROSOFT VISUAL STUDIO 10.0\VC\INCLUDE\CTYPE.H
C:\PROGRAM FILES\MICROSOFT SDKS\WINDOWS\V7.0A\INCLUDE\SPECSTRINGS.H
C:\PROGRAM FILES\MICROSOFT SDKS\WINDOWS\V7.0A\INCLUDE\SAL_SUPP.H
C:\PROGRAM FILES\MICROSOFT SDKS\WINDOWS\V7.0A\INCLUDE\SPECSTRINGS_SUPP.H
C:\PROGRAM FILES\MICROSOFT SDKS\WINDOWS\V7.0A\INCLUDE\SPECSTRINGS_STRICT.H
C:\PROGRAM FILES\MICROSOFT SDKS\WINDOWS\V7.0A\INCLUDE\SPECSTRINGS_UNDEF.H
C:\PROGRAM FILES\MICROSOFT SDKS\WINDOWS\V7.0A\INCLUDE\DRIVERSPECS.H
C:\PROGRAM FILES\MICROSOFT SDKS\WINDOWS\V7.0A\INCLUDE\SDV_DRIVERSPECS.H
C:\PROGRAM FILES\MICROSOFT SDKS\WINDOWS\V7.0A\INCLUDE\KERNELSPECS.H
C:\PROGRAM FILES\MICROSOFT SDKS\WINDOWS\V7.0A\INCLUDE\BASETSD.H
C:\PROGRAM FILES\MICROSOFT SDKS\WINDOWS\V7.0A\INCLUDE\GUIDDEF.H
C:\PROGRAM FILES\MICROSOFT VISUAL STUDIO 10.0\VC\INCLUDE\STRING.H
C:\PROGRAM FILES\MICROSOFT SDKS\WINDOWS\V7.0A\INCLUDE\PSHPACK4.H
C:\PROGRAM FILES\MICROSOFT SDKS\WINDOWS\V7.0A\INCLUDE\POPPACK.H
C:\PROGRAM FILES\MICROSOFT SDKS\WINDOWS\V7.0A\INCLUDE\PSHPACK2.H
C:\PROGRAM FILES\MICROSOFT SDKS\WINDOWS\V7.0A\INCLUDE\PSHPACK8.H
C:\PROGRAM FILES\MICROSOFT SDKS\WINDOWS\V7.0A\INCLUDE\KTMTYPES.H
C:\PROGRAM FILES\MICROSOFT SDKS\WINDOWS\V7.0A\INCLUDE\WINBASE.H
C:\PROGRAM FILES\MICROSOFT SDKS\WINDOWS\V7.0A\INCLUDE\WINERROR.H
C:\PROGRAM FILES\MICROSOFT SDKS\WINDOWS\V7.0A\INCLUDE\WINGDI.H
C:\PROGRAM FILES\MICROSOFT SDKS\WINDOWS\V7.0A\INCLUDE\PSHPACK1.H
C:\PROGRAM FILES\MICROSOFT SDKS\WINDOWS\V7.0A\INCLUDE\WINUSER.H
C:\PROGRAM FILES\MICROSOFT SDKS\WINDOWS\V7.0A\INCLUDE\TVOUT.H
C:\PROGRAM FILES\MICROSOFT SDKS\WINDOWS\V7.0A\INCLUDE\WINNLS.H
C:\PROGRAM FILES\MICROSOFT SDKS\WINDOWS\V7.0A\INCLUDE\WINCON.H
C:\PROGRAM FILES\MICROSOFT SDKS\WINDOWS\V7.0A\INCLUDE\WINVER.H
C:\PROGRAM FILES\MICROSOFT SDKS\WINDOWS\V7.0A\INCLUDE\VERRSRC.H
C:\PROGRAM FILES\MICROSOFT SDKS\WINDOWS\V7.0A\INCLUDE\WINREG.H
C:\PROGRAM FILES\MICROSOFT SDKS\WINDOWS\V7.0A\INCLUDE\REASON.H
C:\PROGRAM FILES\MICROSOFT SDKS\WINDOWS\V7.0A\INCLUDE\WINNETWK.H
C:\PROGRAM FILES\MICROSOFT SDKS\WINDOWS\V7.0A\INCLUDE\WNNC.H
C:\PROGRAM FILES\MICROSOFT SDKS\WINDOWS\V7.0A\INCLUDE\STRALIGN.H
C:\PROGRAM FILES\MICROSOFT SDKS\WINDOWS\V7.0A\INCLUDE\ZMOUSE.H
C:\PROGRAM FILES\MICROSOFT SDKS\WINDOWS\V7.0A\INCLUDE\COMMCTRL.H
C:\PROGRAM FILES\MICROSOFT SDKS\WINDOWS\V7.0A\INCLUDE\PRSHT.H
C:\PROGRAM FILES\MICROSOFT VISUAL STUDIO 10.0\VC\INCLUDE\TCHAR.H
C:\PROGRAM FILES\MICROSOFT VISUAL STUDIO 10.0\VC\INCLUDE\WCHAR.H
C:\PROGRAM FILES\MICROSOFT VISUAL STUDIO 10.0\VC\INCLUDE\SWPRINTF.INL
C:\PROGRAM FILES\MICROSOFT VISUAL STUDIO 10.0\VC\INCLUDE\WTIME.INL
C:\PROGRAM FILES\MICROSOFT VISUAL STUDIO 10.0\VC\ATLMFC\INCLUDE\AFXV_DLL.H
C:\PROGRAM FILES\MICROSOFT VISUAL STUDIO 10.0\VC\INCLUDE\STDIO.H
C:\PROGRAM FILES\MICROSOFT VISUAL STUDIO 10.0\VC\INCLUDE\STDLIB.H
C:\PROGRAM FILES\MICROSOFT VISUAL STUDIO 10.0\VC\INCLUDE\LIMITS.H
C:\PROGRAM FILES\MICROSOFT VISUAL STUDIO 10.0\VC\INCLUDE\TIME.H
C:\PROGRAM FILES\MICROSOFT VISUAL STUDIO 10.0\VC\INCLUDE\TIME.INL
C:\PROGRAM FILES\MICROSOFT VISUAL STUDIO 10.0\VC\INCLUDE\STDDEF.H
C:\PROGRAM FILES\MICROSOFT VISUAL STUDIO 10.0\VC\INCLUDE\ERRNO.H
C:\PROGRAM FILES\MICROSOFT VISUAL STUDIO 10.0\VC\INCLUDE\MALLOC.H
C:\PROGRAM FILES\MICROSOFT VISUAL STUDIO 10.0\VC\INCLUDE\CRTDBG.H
C:\PROGRAM FILES\MICROSOFT VISUAL STUDIO 10.0\VC\ATLMFC\INCLUDE\ATLTRACE.H
C:\PROGRAM FILES\MICROSOFT VISUAL STUDIO 10.0\VC\ATLMFC\INCLUDE\ATLDEF.H
C:\PROGRAM FILES\MICROSOFT VISUAL STUDIO 10.0\VC\ATLMFC\INCLUDE\ATLRC.H
C:\PROGRAM FILES\MICROSOFT VISUAL STUDIO 10.0\VC\ATLMFC\INCLUDE\ATLCONV.H
C:\PROGRAM FILES\MICROSOFT VISUAL STUDIO 10.0\VC\ATLMFC\INCLUDE\ATLALLOC.H
C:\PROGRAM FILES\MICROSOFT SDKS\WINDOWS\V7.0A\INCLUDE\OLE2.H
C:\PROGRAM FILES\MICROSOFT SDKS\WINDOWS\V7.0A\INCLUDE\OBJBASE.H
C:\PROGRAM FILES\MICROSOFT SDKS\WINDOWS\V7.0A\INCLUDE\RPC.H
C:\PROGRAM FILES\MICROSOFT SDKS\WINDOWS\V7.0A\INCLUDE\RPCDCE.H
C:\PROGRAM FILES\MICROSOFT SDKS\WINDOWS\V7.0A\INCLUDE\RPCDCEP.H
C:\PROGRAM FILES\MICROSOFT SDKS\WINDOWS\V7.0A\INCLUDE\RPCNSI.H
C:\PROGRAM FILES\MICROSOFT SDKS\WINDOWS\V7.0A\INCLUDE\RPCNTERR.H
C:\PROGRAM FILES\MICROSOFT SDKS\WINDOWS\V7.0A\INCLUDE\RPCASYNC.H
C:\PROGRAM FILES\MICROSOFT SDKS\WINDOWS\V7.0A\INCLUDE\RPCNDR.H
C:\PROGRAM FILES\MICROSOFT SDKS\WINDOWS\V7.0A\INCLUDE\RPCNSIP.H
C:\PROGRAM FILES\MICROSOFT SDKS\WINDOWS\V7.0A\INCLUDE\RPCSAL.H
C:\PROGRAM FILES\MICROSOFT SDKS\WINDOWS\V7.0A\INCLUDE\WTYPES.H
C:\PROGRAM FILES\MICROSOFT SDKS\WINDOWS\V7.0A\INCLUDE\UNKNWN.H
C:\PROGRAM FILES\MICROSOFT SDKS\WINDOWS\V7.0A\INCLUDE\OBJIDL.H
C:\PROGRAM FILES\MICROSOFT SDKS\WINDOWS\V7.0A\INCLUDE\CGUID.H
C:\PROGRAM FILES\MICROSOFT SDKS\WINDOWS\V7.0A\INCLUDE\URLMON.H
C:\PROGRAM FILES\MICROSOFT SDKS\WINDOWS\V7.0A\INCLUDE\OLEIDL.H
C:\PROGRAM FILES\MICROSOFT SDKS\WINDOWS\V7.0A\INCLUDE\SERVPROV.H
C:\PROGRAM FILES\MICROSOFT SDKS\WINDOWS\V7.0A\INCLUDE\MSXML.H
C:\PROGRAM FILES\MICROSOFT SDKS\WINDOWS\V7.0A\INCLUDE\OAIDL.H
C:\PROGRAM FILES\MICROSOFT SDKS\WINDOWS\V7.0A\INCLUDE\PROPIDL.H
C:\PROGRAM FILES\MICROSOFT SDKS\WINDOWS\V7.0A\INCLUDE\OLEAUTO.H
C:\PROGRAM FILES\MICROSOFT VISUAL STUDIO 10.0\VC\ATLMFC\INCLUDE\ATLDEBUGAPI.H
C:\PROGRAM FILES\MICROSOFT VISUAL STUDIO 10.0\VC\ATLMFC\INCLUDE\AFXSTR.H
C:\PROGRAM FILES\MICROSOFT VISUAL STUDIO 10.0\VC\INCLUDE\MBSTRING.H
C:\PROGRAM FILES\MICROSOFT VISUAL STUDIO 10.0\VC\ATLMFC\INCLUDE\ATLCORE.H
C:\PROGRAM FILES\MICROSOFT VISUAL STUDIO 10.0\VC\ATLMFC\INCLUDE\ATLCHECKED.H
C:\PROGRAM FILES\MICROSOFT VISUAL STUDIO 10.0\VC\ATLMFC\INCLUDE\ATLEXCEPT.H
C:\PROGRAM FILES\MICROSOFT VISUAL STUDIO 10.0\VC\ATLMFC\INCLUDE\ATLSIMPCOLL.H
C:\PROGRAM FILES\MICROSOFT VISUAL STUDIO 10.0\VC\ATLMFC\INCLUDE\CSTRINGT.H
C:\PROGRAM FILES\MICROSOFT VISUAL STUDIO 10.0\VC\ATLMFC\INCLUDE\ATLSIMPSTR.H
C:\PROGRAM FILES\MICROSOFT VISUAL STUDIO 10.0\VC\ATLMFC\INCLUDE\ATLMEM.H
C:\PROGRAM FILES\MICROSOFT VISUAL STUDIO 10.0\VC\ATLMFC\INCLUDE\ATLCOMMEM.H
C:\PROGRAM FILES\MICROSOFT VISUAL STUDIO 10.0\VC\ATLMFC\INCLUDE\ATLCOMCLI.H
C:\PROGRAM FILES\MICROSOFT SDKS\WINDOWS\V7.0A\INCLUDE\OLECTL.H
C:\PROGRAM FILES\MICROSOFT SDKS\WINDOWS\V7.0A\INCLUDE\OCIDL.H
C:\PROGRAM FILES\MICROSOFT VISUAL STUDIO 10.0\VC\ATLMFC\INCLUDE\CSTRINGT.INL
C:\PROGRAM FILES\MICROSOFT VISUAL STUDIO 10.0\VC\ATLMFC\INCLUDE\ATLTRANSACTIONMANAGER.H
C:\PROGRAM FILES\MICROSOFT SDKS\WINDOWS\V7.0A\INCLUDE\KTMW32.H
C:\PROGRAM FILES\MICROSOFT VISUAL STUDIO 10.0\VC\ATLMFC\INCLUDE\ATLTIME.H
C:\PROGRAM FILES\MICROSOFT SDKS\WINDOWS\V7.0A\INCLUDE\OLEDB.H
C:\PROGRAM FILES\MICROSOFT SDKS\WINDOWS\V7.0A\INCLUDE\TRANSACT.H
C:\PROGRAM FILES\MICROSOFT SDKS\WINDOWS\V7.0A\INCLUDE\ACCCTRL.H
C:\PROGRAM FILES\MICROSOFT VISUAL STUDIO 10.0\VC\ATLMFC\INCLUDE\AFXCOLL.H
C:\PROGRAM FILES\MICROSOFT VISUAL STUDIO 10.0\VC\ATLMFC\INCLUDE\AFXSTAT_.H
C:\PROGRAM FILES\MICROSOFT VISUAL STUDIO 10.0\VC\ATLMFC\INCLUDE\ATLTYPES.H
C:\PROGRAM FILES\MICROSOFT VISUAL STUDIO 10.0\VC\ATLMFC\INCLUDE\AFXTLS_.H
C:\PROGRAM FILES\MICROSOFT VISUAL STUDIO 10.0\VC\ATLMFC\INCLUDE\AFX.INL
C:\PROGRAM FILES\MICROSOFT SDKS\WINDOWS\V7.0A\INCLUDE\SHELLAPI.H
C:\PROGRAM FILES\MICROSOFT VISUAL STUDIO 10.0\VC\ATLMFC\INCLUDE\AFXRES.H
C:\PROGRAM FILES\MICROSOFT SDKS\WINDOWS\V7.0A\INCLUDE\COMMDLG.H
C:\PROGRAM FILES\MICROSOFT VISUAL STUDIO 10.0\VC\ATLMFC\INCLUDE\AFXCTRLCONTAINER.H
C:\PROGRAM FILES\MICROSOFT SDKS\WINDOWS\V7.0A\INCLUDE\SHOBJIDL.H
C:\PROGRAM FILES\MICROSOFT SDKS\WINDOWS\V7.0A\INCLUDE\DOCOBJ.H
C:\PROGRAM FILES\MICROSOFT SDKS\WINDOWS\V7.0A\INCLUDE\SHTYPES.H
C:\PROGRAM FILES\MICROSOFT SDKS\WINDOWS\V7.0A\INCLUDE\COMCAT.H
C:\PROGRAM FILES\MICROSOFT SDKS\WINDOWS\V7.0A\INCLUDE\PROPSYS.H
C:\PROGRAM FILES\MICROSOFT SDKS\WINDOWS\V7.0A\INCLUDE\STRUCTUREDQUERYCONDITION.H
C:\PROGRAM FILES\MICROSOFT SDKS\WINDOWS\V7.0A\INCLUDE\PROPKEYDEF.H
C:\PROGRAM FILES\MICROSOFT SDKS\WINDOWS\V7.0A\INCLUDE\OBJECTARRAY.H
C:\PROGRAM FILES\MICROSOFT SDKS\WINDOWS\V7.0A\INCLUDE\SHERRORS.H
C:\PROGRAM FILES\MICROSOFT SDKS\WINDOWS\V7.0A\INCLUDE\THUMBCACHE.H
C:\PROGRAM FILES\MICROSOFT VISUAL STUDIO 10.0\VC\ATLMFC\INCLUDE\ATLHANDLER.H
C:\PROGRAM FILES\MICROSOFT SDKS\WINDOWS\V7.0A\INCLUDE\FILTER.H
C:\PROGRAM FILES\MICROSOFT VISUAL STUDIO 10.0\VC\ATLMFC\INCLUDE\ATLSTR.H
C:\PROGRAM FILES\MICROSOFT VISUAL STUDIO 10.0\VC\ATLMFC\INCLUDE\ATLBASE.H
C:\PROGRAM FILES\MICROSOFT SDKS\WINDOWS\V7.0A\INCLUDE\WINSOCK2.H
C:\PROGRAM FILES\MICROSOFT SDKS\WINDOWS\V7.0A\INCLUDE\WS2DEF.H
C:\PROGRAM FILES\MICROSOFT SDKS\WINDOWS\V7.0A\INCLUDE\INADDR.H
C:\PROGRAM FILES\MICROSOFT SDKS\WINDOWS\V7.0A\INCLUDE\QOS.H
C:\PROGRAM FILES\MICROSOFT VISUAL STUDIO 10.0\VC\ATLMFC\INCLUDE\ATLIFACE.H
C:\PROGRAM FILES\MICROSOFT SDKS\WINDOWS\V7.0A\INCLUDE\OLEACC.H
C:\PROGRAM FILES\MICROSOFT VISUAL STUDIO 10.0\VC\INCLUDE\PROCESS.H
C:\PROGRAM FILES\MICROSOFT SDKS\WINDOWS\V7.0A\INCLUDE\SHLWAPI.H
C:\PROGRAM FILES\MICROSOFT VISUAL STUDIO 10.0\VC\ATLMFC\INCLUDE\STATREG.H
C:\PROGRAM FILES\MICROSOFT SDKS\WINDOWS\V7.0A\INCLUDE\TPCSHRD.H
C:\PROGRAM FILES\MICROSOFT VISUAL STUDIO 10.0\VC\ATLMFC\INCLUDE\AFXCOMCTL32.H
C:\PROGRAM FILES\MICROSOFT SDKS\WINDOWS\V7.0A\INCLUDE\VSSYM32.H
C:\PROGRAM FILES\MICROSOFT SDKS\WINDOWS\V7.0A\INCLUDE\VSSTYLE.H
C:\PROGRAM FILES\MICROSOFT SDKS\WINDOWS\V7.0A\INCLUDE\WS2IPDEF.H
C:\PROGRAM FILES\MICROSOFT SDKS\WINDOWS\V7.0A\INCLUDE\IN6ADDR.H
C:\PROGRAM FILES\MICROSOFT SDKS\WINDOWS\V7.0A\INCLUDE\WINDNS.H
C:\PROGRAM FILES\MICROSOFT SDKS\WINDOWS\V7.0A\INCLUDE\IPHLPAPI.H
C:\PROGRAM FILES\MICROSOFT SDKS\WINDOWS\V7.0A\INCLUDE\IPRTRMIB.H
C:\PROGRAM FILES\MICROSOFT SDKS\WINDOWS\V7.0A\INCLUDE\MPRAPI.H
C:\PROGRAM FILES\MICROSOFT SDKS\WINDOWS\V7.0A\INCLUDE\LMCONS.H
C:\PROGRAM FILES\MICROSOFT SDKS\WINDOWS\V7.0A\INCLUDE\RAS.H
C:\PROGRAM FILES\MICROSOFT SDKS\WINDOWS\V7.0A\INCLUDE\WINCRYPT.H
C:\PROGRAM FILES\MICROSOFT SDKS\WINDOWS\V7.0A\INCLUDE\BCRYPT.H
C:\PROGRAM FILES\MICROSOFT SDKS\WINDOWS\V7.0A\INCLUDE\NCRYPT.H
C:\PROGRAM FILES\MICROSOFT SDKS\WINDOWS\V7.0A\INCLUDE\IPIFCONS.H
C:\PROGRAM FILES\MICROSOFT SDKS\WINDOWS\V7.0A\INCLUDE\IPMIB.H
C:\PROGRAM FILES\MICROSOFT SDKS\WINDOWS\V7.0A\INCLUDE\IFMIB.H
C:\PROGRAM FILES\MICROSOFT SDKS\WINDOWS\V7.0A\INCLUDE\IFDEF.H
C:\PROGRAM FILES\MICROSOFT SDKS\WINDOWS\V7.0A\INCLUDE\NLDEF.H
C:\PROGRAM FILES\MICROSOFT SDKS\WINDOWS\V7.0A\INCLUDE\TCPMIB.H
C:\PROGRAM FILES\MICROSOFT SDKS\WINDOWS\V7.0A\INCLUDE\UDPMIB.H
C:\PROGRAM FILES\MICROSOFT SDKS\WINDOWS\V7.0A\INCLUDE\IPEXPORT.H
C:\PROGRAM FILES\MICROSOFT SDKS\WINDOWS\V7.0A\INCLUDE\PACKON.H
C:\PROGRAM FILES\MICROSOFT SDKS\WINDOWS\V7.0A\INCLUDE\PACKOFF.H
C:\PROGRAM FILES\MICROSOFT SDKS\WINDOWS\V7.0A\INCLUDE\IPTYPES.H
C:\PROGRAM FILES\MICROSOFT SDKS\WINDOWS\V7.0A\INCLUDE\TCPESTATS.H
C:\PROGRAM FILES\MICROSOFT SDKS\WINDOWS\V7.0A\INCLUDE\NETIOAPI.H
C:\PROGRAM FILES\MICROSOFT SDKS\WINDOWS\V7.0A\INCLUDE\NTDDNDIS.H
C:\PROGRAM FILES\MICROSOFT SDKS\WINDOWS\V7.0A\INCLUDE\DEVPKEY.H
C:\PROGRAM FILES\MICROSOFT SDKS\WINDOWS\V7.0A\INCLUDE\DEVPROPDEF.H
C:\PROGRAM FILES\MICROSOFT SDKS\WINDOWS\V7.0A\INCLUDE\PCIPROP.H
C:\PROGRAM FILES\MICROSOFT SDKS\WINDOWS\V7.0A\INCLUDE\WINDOT11.H
C:\PROGRAM FILES\MICROSOFT SDKS\WINDOWS\V7.0A\INCLUDE\WLANTYPES.H
C:\PROGRAM FILES\MICROSOFT SDKS\WINDOWS\V7.0A\INCLUDE\HTMLHELP.H
C:\PROGRAM FILES\MICROSOFT VISUAL STUDIO 10.0\VC\ATLMFC\INCLUDE\AFXMSG_.H
C:\PROGRAM FILES\MICROSOFT VISUAL STUDIO 10.0\VC\ATLMFC\INCLUDE\AFXDD_.H
C:\PROGRAM FILES\MICROSOFT VISUAL STUDIO 10.0\VC\ATLMFC\INCLUDE\AFXDLL_.H
C:\PROGRAM FILES\MICROSOFT VISUAL STUDIO 10.0\VC\ATLMFC\INCLUDE\AFXCOMCTL32.INL
C:\PROGRAM FILES\MICROSOFT VISUAL STUDIO 10.0\VC\ATLMFC\INCLUDE\AFXWIN4.INL
C:\PROGRAM FILES\MICROSOFT VISUAL STUDIO 10.0\VC\ATLMFC\INCLUDE\AFXEXT.H
C:\PROGRAM FILES\MICROSOFT VISUAL STUDIO 10.0\VC\ATLMFC\INCLUDE\AFXDLGS.H
C:\PROGRAM FILES\MICROSOFT SDKS\WINDOWS\V7.0A\INCLUDE\RICHEDIT.H
C:\PROGRAM FILES\MICROSOFT SDKS\WINDOWS\V7.0A\INCLUDE\UXTHEME.H
C:\PROGRAM FILES\MICROSOFT VISUAL STUDIO 10.0\VC\ATLMFC\INCLUDE\AFXDISP.H
C:\PROGRAM FILES\MICROSOFT SDKS\WINDOWS\V7.0A\INCLUDE\SHLOBJ.H
C:\PROGRAM FILES\MICROSOFT SDKS\WINDOWS\V7.0A\INCLUDE\SHLGUID.H
C:\PROGRAM FILES\MICROSOFT SDKS\WINDOWS\V7.0A\INCLUDE\ISGUIDS.H
C:\PROGRAM FILES\MICROSOFT SDKS\WINDOWS\V7.0A\INCLUDE\EXDISP.H
C:\PROGRAM FILES\MICROSOFT SDKS\WINDOWS\V7.0A\INCLUDE\SHLDISP.H
C:\PROGRAM FILES\MICROSOFT SDKS\WINDOWS\V7.0A\INCLUDE\KNOWNFOLDERS.H
C:\PROGRAM FILES\MICROSOFT VISUAL STUDIO 10.0\VC\ATLMFC\INCLUDE\ATLCOMTIME.H
C:\PROGRAM FILES\MICROSOFT VISUAL STUDIO 10.0\VC\ATLMFC\INCLUDE\AFXOCC.H
C:\PROGRAM FILES\MICROSOFT VISUAL STUDIO 10.0\VC\ATLMFC\INCLUDE\AFXTEMPL.H
C:\PROGRAM FILES\MICROSOFT VISUAL STUDIO 10.0\VC\ATLMFC\INCLUDE\AFXPLEX_.H
C:\PROGRAM FILES\MICROSOFT VISUAL STUDIO 10.0\VC\ATLMFC\INCLUDE\OLEBIND.H
C:\PROGRAM FILES\MICROSOFT VISUAL STUDIO 10.0\VC\ATLMFC\INCLUDE\OCDBID.H
C:\PROGRAM FILES\MICROSOFT VISUAL STUDIO 10.0\VC\ATLMFC\INCLUDE\OCDB.H
C:\PROGRAM FILES\MICROSOFT VISUAL STUDIO 10.0\VC\ATLMFC\INCLUDE\AFXDTCTL.H
C:\PROGRAM FILES\MICROSOFT VISUAL STUDIO 10.0\VC\ATLMFC\INCLUDE\AFXCMN.H
C:\PROGRAM FILES\MICROSOFT VISUAL STUDIO 10.0\VC\ATLMFC\INCLUDE\AFXCMN3.INL
C:\PROGRAM FILES\MICROSOFT VISUAL STUDIO 10.0\VC\ATLMFC\INCLUDE\AFXCONTROLBARS.H
C:\PROGRAM FILES\MICROSOFT VISUAL STUDIO 10.0\VC\ATLMFC\INCLUDE\AFXCONTROLBARUTIL.H
C:\PROGRAM FILES\MICROSOFT VISUAL STUDIO 10.0\VC\ATLMFC\INCLUDE\AFXUSERTOOLSMANAGER.H
C:\PROGRAM FILES\MICROSOFT VISUAL STUDIO 10.0\VC\ATLMFC\INCLUDE\AFXUSERTOOL.H
C:\PROGRAM FILES\MICROSOFT VISUAL STUDIO 10.0\VC\ATLMFC\INCLUDE\AFXTOOLBAR.H
C:\PROGRAM FILES\MICROSOFT VISUAL STUDIO 10.0\VC\ATLMFC\INCLUDE\AFXTOOLBARDROPTARGET.H
C:\PROGRAM FILES\MICROSOFT VISUAL STUDIO 10.0\VC\ATLMFC\INCLUDE\AFXOLE.H
C:\PROGRAM FILES\MICROSOFT VISUAL STUDIO 10.0\VC\ATLMFC\INCLUDE\AFXCOM_.H
C:\PROGRAM FILES\MICROSOFT VISUAL STUDIO 10.0\VC\ATLMFC\INCLUDE\AFXTOOLBARDROPSOURCE.H
C:\PROGRAM FILES\MICROSOFT VISUAL STUDIO 10.0\VC\ATLMFC\INCLUDE\AFXTOOLBARIMAGES.H
C:\PROGRAM FILES\MICROSOFT VISUAL STUDIO 10.0\VC\ATLMFC\INCLUDE\AFXMT.H
C:\PROGRAM FILES\MICROSOFT VISUAL STUDIO 10.0\VC\ATLMFC\INCLUDE\ATLIMAGE.H
C:\PROGRAM FILES\MICROSOFT SDKS\WINDOWS\V7.0A\INCLUDE\GDIPLUS.H
C:\PROGRAM FILES\MICROSOFT SDKS\WINDOWS\V7.0A\INCLUDE\GDIPLUSMEM.H
C:\PROGRAM FILES\MICROSOFT SDKS\WINDOWS\V7.0A\INCLUDE\GDIPLUSBASE.H
C:\PROGRAM FILES\MICROSOFT SDKS\WINDOWS\V7.0A\INCLUDE\GDIPLUSENUMS.H
C:\PROGRAM FILES\MICROSOFT SDKS\WINDOWS\V7.0A\INCLUDE\GDIPLUSTYPES.H
C:\PROGRAM FILES\MICROSOFT SDKS\WINDOWS\V7.0A\INCLUDE\GDIPLUSINIT.H
C:\PROGRAM FILES\MICROSOFT SDKS\WINDOWS\V7.0A\INCLUDE\GDIPLUSPIXELFORMATS.H
C:\PROGRAM FILES\MICROSOFT SDKS\WINDOWS\V7.0A\INCLUDE\GDIPLUSCOLOR.H
C:\PROGRAM FILES\MICROSOFT SDKS\WINDOWS\V7.0A\INCLUDE\GDIPLUSMETAHEADER.H
C:\PROGRAM FILES\MICROSOFT SDKS\WINDOWS\V7.0A\INCLUDE\GDIPLUSIMAGING.H
C:\PROGRAM FILES\MICROSOFT SDKS\WINDOWS\V7.0A\INCLUDE\GDIPLUSCOLORMATRIX.H
C:\PROGRAM FILES\MICROSOFT SDKS\WINDOWS\V7.0A\INCLUDE\GDIPLUSGPSTUBS.H
C:\PROGRAM FILES\MICROSOFT SDKS\WINDOWS\V7.0A\INCLUDE\GDIPLUSHEADERS.H
C:\PROGRAM FILES\MICROSOFT SDKS\WINDOWS\V7.0A\INCLUDE\GDIPLUSFLAT.H
C:\PROGRAM FILES\MICROSOFT SDKS\WINDOWS\V7.0A\INCLUDE\GDIPLUSIMAGEATTRIBUTES.H
C:\PROGRAM FILES\MICROSOFT SDKS\WINDOWS\V7.0A\INCLUDE\GDIPLUSMATRIX.H
C:\PROGRAM FILES\MICROSOFT SDKS\WINDOWS\V7.0A\INCLUDE\GDIPLUSBRUSH.H
C:\PROGRAM FILES\MICROSOFT SDKS\WINDOWS\V7.0A\INCLUDE\GDIPLUSPEN.H
C:\PROGRAM FILES\MICROSOFT SDKS\WINDOWS\V7.0A\INCLUDE\GDIPLUSSTRINGFORMAT.H
C:\PROGRAM FILES\MICROSOFT SDKS\WINDOWS\V7.0A\INCLUDE\GDIPLUSPATH.H
C:\PROGRAM FILES\MICROSOFT SDKS\WINDOWS\V7.0A\INCLUDE\GDIPLUSLINECAPS.H
C:\PROGRAM FILES\MICROSOFT SDKS\WINDOWS\V7.0A\INCLUDE\GDIPLUSGRAPHICS.H
C:\PROGRAM FILES\MICROSOFT SDKS\WINDOWS\V7.0A\INCLUDE\GDIPLUSMETAFILE.H
C:\PROGRAM FILES\MICROSOFT SDKS\WINDOWS\V7.0A\INCLUDE\GDIPLUSCACHEDBITMAP.H
C:\PROGRAM FILES\MICROSOFT SDKS\WINDOWS\V7.0A\INCLUDE\GDIPLUSREGION.H
C:\PROGRAM FILES\MICROSOFT SDKS\WINDOWS\V7.0A\INCLUDE\GDIPLUSFONTCOLLECTION.H
C:\PROGRAM FILES\MICROSOFT SDKS\WINDOWS\V7.0A\INCLUDE\GDIPLUSFONTFAMILY.H
C:\PROGRAM FILES\MICROSOFT SDKS\WINDOWS\V7.0A\INCLUDE\GDIPLUSFONT.H
C:\PROGRAM FILES\MICROSOFT SDKS\WINDOWS\V7.0A\INCLUDE\GDIPLUSBITMAP.H
C:\PROGRAM FILES\MICROSOFT SDKS\WINDOWS\V7.0A\INCLUDE\GDIPLUSIMAGECODEC.H
C:\PROGRAM FILES\MICROSOFT VISUAL STUDIO 10.0\VC\ATLMFC\INCLUDE\AFXTOOLBARBUTTON.H
C:\PROGRAM FILES\MICROSOFT VISUAL STUDIO 10.0\VC\ATLMFC\INCLUDE\AFXCONTROLBARIMPL.H
C:\PROGRAM FILES\MICROSOFT VISUAL STUDIO 10.0\VC\ATLMFC\INCLUDE\AFXCMDUSAGECOUNT.H
C:\PROGRAM FILES\MICROSOFT VISUAL STUDIO 10.0\VC\ATLMFC\INCLUDE\AFXCOMMANDMANAGER.H
C:\PROGRAM FILES\MICROSOFT VISUAL STUDIO 10.0\VC\ATLMFC\INCLUDE\AFXVISUALMANAGER.H
C:\PROGRAM FILES\MICROSOFT VISUAL STUDIO 10.0\VC\ATLMFC\INCLUDE\AFXGLOBALS.H
C:\PROGRAM FILES\MICROSOFT VISUAL STUDIO 10.0\VC\ATLMFC\INCLUDE\AFXACCESSIBILITY.H
C:\PROGRAM FILES\MICROSOFT VISUAL STUDIO 10.0\VC\ATLMFC\INCLUDE\AFXBASETOOLBAR.H
C:\PROGRAM FILES\MICROSOFT VISUAL STUDIO 10.0\VC\ATLMFC\INCLUDE\AFXPANE.H
C:\PROGRAM FILES\MICROSOFT VISUAL STUDIO 10.0\VC\ATLMFC\INCLUDE\AFXBASEPANE.H
C:\PROGRAM FILES\MICROSOFT VISUAL STUDIO 10.0\VC\ATLMFC\INCLUDE\AFXRECENTDOCKSITEINFO.H
C:\PROGRAM FILES\MICROSOFT VISUAL STUDIO 10.0\VC\ATLMFC\INCLUDE\AFXDRAGFRAMEIMPL.H
C:\PROGRAM FILES\MICROSOFT VISUAL STUDIO 10.0\VC\ATLMFC\INCLUDE\AFXSTATUSBAR.H
C:\PROGRAM FILES\MICROSOFT VISUAL STUDIO 10.0\VC\ATLMFC\INCLUDE\AFXMENUBAR.H
C:\PROGRAM FILES\MICROSOFT VISUAL STUDIO 10.0\VC\ATLMFC\INCLUDE\AFXPANEDIALOG.H
C:\PROGRAM FILES\MICROSOFT VISUAL STUDIO 10.0\VC\ATLMFC\INCLUDE\AFXDOCKABLEPANE.H
C:\PROGRAM FILES\MICROSOFT VISUAL STUDIO 10.0\VC\ATLMFC\INCLUDE\AFXMENUIMAGES.H
C:\PROGRAM FILES\MICROSOFT VISUAL STUDIO 10.0\VC\ATLMFC\INCLUDE\AFXPANECONTAINER.H
C:\PROGRAM FILES\MICROSOFT VISUAL STUDIO 10.0\VC\ATLMFC\INCLUDE\AFXCAPTIONBUTTON.H
C:\PROGRAM FILES\MICROSOFT VISUAL STUDIO 10.0\VC\ATLMFC\INCLUDE\AFXMULTIPANEFRAMEWND.H
C:\PROGRAM FILES\MICROSOFT VISUAL STUDIO 10.0\VC\ATLMFC\INCLUDE\AFXPANEFRAMEWND.H
C:\PROGRAM FILES\MICROSOFT VISUAL STUDIO 10.0\VC\ATLMFC\INCLUDE\AFXPANECONTAINERMANAGER.H
C:\PROGRAM FILES\MICROSOFT VISUAL STUDIO 10.0\VC\ATLMFC\INCLUDE\AFXPANEDIVIDER.H
C:\PROGRAM FILES\MICROSOFT VISUAL STUDIO 10.0\VC\ATLMFC\INCLUDE\AFXOUTLOOKBAR.H
C:\PROGRAM FILES\MICROSOFT VISUAL STUDIO 10.0\VC\ATLMFC\INCLUDE\AFXBASETABBEDPANE.H
C:\PROGRAM FILES\MICROSOFT VISUAL STUDIO 10.0\VC\ATLMFC\INCLUDE\AFXBASETABCTRL.H
C:\PROGRAM FILES\MICROSOFT VISUAL STUDIO 10.0\VC\ATLMFC\INCLUDE\AFXOUTLOOKBARTABCTRL.H
C:\PROGRAM FILES\MICROSOFT VISUAL STUDIO 10.0\VC\ATLMFC\INCLUDE\AFXRIBBONRES.H
C:\PROGRAM FILES\MICROSOFT VISUAL STUDIO 10.0\VC\ATLMFC\INCLUDE\AFXBUTTON.H
C:\PROGRAM FILES\MICROSOFT VISUAL STUDIO 10.0\VC\ATLMFC\INCLUDE\AFXTOOLBARSLISTCHECKBOX.H
C:\PROGRAM FILES\MICROSOFT VISUAL STUDIO 10.0\VC\ATLMFC\INCLUDE\AFXCOLORBAR.H
C:\PROGRAM FILES\MICROSOFT VISUAL STUDIO 10.0\VC\ATLMFC\INCLUDE\AFXPOPUPMENUBAR.H
C:\PROGRAM FILES\MICROSOFT VISUAL STUDIO 10.0\VC\ATLMFC\INCLUDE\AFXCAPTIONBAR.H
C:\PROGRAM FILES\MICROSOFT VISUAL STUDIO 10.0\VC\ATLMFC\INCLUDE\AFXOUTLOOKBARPANE.H
C:\PROGRAM FILES\MICROSOFT VISUAL STUDIO 10.0\VC\ATLMFC\INCLUDE\AFXTABBEDPANE.H
C:\PROGRAM FILES\MICROSOFT VISUAL STUDIO 10.0\VC\ATLMFC\INCLUDE\AFXTABCTRL.H
C:\PROGRAM FILES\MICROSOFT VISUAL STUDIO 10.0\VC\ATLMFC\INCLUDE\AFXTASKSPANE.H
C:\PROGRAM FILES\MICROSOFT VISUAL STUDIO 10.0\VC\ATLMFC\INCLUDE\AFXCAPTIONMENUBUTTON.H
C:\PROGRAM FILES\MICROSOFT VISUAL STUDIO 10.0\VC\ATLMFC\INCLUDE\AFXTASKSPANEFRAMEWND.H
C:\PROGRAM FILES\MICROSOFT VISUAL STUDIO 10.0\VC\ATLMFC\INCLUDE\AFXRIBBONBAR.H
C:\PROGRAM FILES\MICROSOFT VISUAL STUDIO 10.0\VC\ATLMFC\INCLUDE\AFXRIBBONBUTTON.H
C:\PROGRAM FILES\MICROSOFT VISUAL STUDIO 10.0\VC\ATLMFC\INCLUDE\AFXBASERIBBONELEMENT.H
C:\PROGRAM FILES\MICROSOFT VISUAL STUDIO 10.0\VC\ATLMFC\INCLUDE\AFXRIBBONQUICKACCESSTOOLBAR.H
C:\PROGRAM FILES\MICROSOFT VISUAL STUDIO 10.0\VC\ATLMFC\INCLUDE\AFXRIBBONBUTTONSGROUP.H
C:\PROGRAM FILES\MICROSOFT VISUAL STUDIO 10.0\VC\ATLMFC\INCLUDE\AFXRIBBONCUSTOMIZEDIALOG.H
C:\PROGRAM FILES\MICROSOFT VISUAL STUDIO 10.0\VC\ATLMFC\INCLUDE\AFXPROPERTYSHEET.H
C:\PROGRAM FILES\MICROSOFT VISUAL STUDIO 10.0\VC\ATLMFC\INCLUDE\AFXDIALOGIMPL.H
C:\PROGRAM FILES\MICROSOFT VISUAL STUDIO 10.0\VC\ATLMFC\INCLUDE\AFXPROPERTYPAGE.H
C:\PROGRAM FILES\MICROSOFT VISUAL STUDIO 10.0\VC\ATLMFC\INCLUDE\AFXRIBBONCOMMANDSLISTBOX.H
C:\PROGRAM FILES\MICROSOFT VISUAL STUDIO 10.0\VC\ATLMFC\INCLUDE\AFXRIBBONKEYBOARDCUSTOMIZEDIALOG.H
C:\PROGRAM FILES\MICROSOFT VISUAL STUDIO 10.0\VC\ATLMFC\INCLUDE\AFXDIALOGEX.H
C:\PROGRAM FILES\MICROSOFT VISUAL STUDIO 10.0\VC\ATLMFC\INCLUDE\AFXACCELERATORKEYASSIGNCTRL.H
C:\PROGRAM FILES\MICROSOFT VISUAL STUDIO 10.0\VC\ATLMFC\INCLUDE\AFXACCELERATORKEY.H
C:\PROGRAM FILES\MICROSOFT VISUAL STUDIO 10.0\VC\ATLMFC\INCLUDE\AFXRIBBONPANEL.H
C:\PROGRAM FILES\MICROSOFT VISUAL STUDIO 10.0\VC\ATLMFC\INCLUDE\AFXRIBBONMAINPANEL.H
C:\PROGRAM FILES\MICROSOFT VISUAL STUDIO 10.0\VC\ATLMFC\INCLUDE\AFXRIBBONPANELMENU.H
C:\PROGRAM FILES\MICROSOFT VISUAL STUDIO 10.0\VC\ATLMFC\INCLUDE\AFXPOPUPMENU.H
C:\PROGRAM FILES\MICROSOFT VISUAL STUDIO 10.0\VC\ATLMFC\INCLUDE\AFXRIBBONMINITOOLBAR.H
C:\PROGRAM FILES\MICROSOFT VISUAL STUDIO 10.0\VC\ATLMFC\INCLUDE\AFXRIBBONCATEGORY.H
C:\PROGRAM FILES\MICROSOFT VISUAL STUDIO 10.0\VC\ATLMFC\INCLUDE\AFXRIBBONLABEL.H
C:\PROGRAM FILES\MICROSOFT VISUAL STUDIO 10.0\VC\ATLMFC\INCLUDE\AFXRIBBONCOLORBUTTON.H
C:\PROGRAM FILES\MICROSOFT VISUAL STUDIO 10.0\VC\ATLMFC\INCLUDE\AFXRIBBONPALETTEGALLERY.H
C:\PROGRAM FILES\MICROSOFT VISUAL STUDIO 10.0\VC\ATLMFC\INCLUDE\AFXTOOLBARMENUBUTTON.H
C:\PROGRAM FILES\MICROSOFT VISUAL STUDIO 10.0\VC\ATLMFC\INCLUDE\AFXRIBBONEDIT.H
C:\PROGRAM FILES\MICROSOFT VISUAL STUDIO 10.0\VC\ATLMFC\INCLUDE\AFXRIBBONCOMBOBOX.H
C:\PROGRAM FILES\MICROSOFT VISUAL STUDIO 10.0\VC\ATLMFC\INCLUDE\AFXTOOLBARFONTCOMBOBOX.H
C:\PROGRAM FILES\MICROSOFT VISUAL STUDIO 10.0\VC\ATLMFC\INCLUDE\AFXTOOLBARCOMBOBOXBUTTON.H
C:\PROGRAM FILES\MICROSOFT VISUAL STUDIO 10.0\VC\ATLMFC\INCLUDE\AFXRIBBONCHECKBOX.H
C:\PROGRAM FILES\MICROSOFT VISUAL STUDIO 10.0\VC\ATLMFC\INCLUDE\AFXRIBBONSTATUSBAR.H
C:\PROGRAM FILES\MICROSOFT VISUAL STUDIO 10.0\VC\ATLMFC\INCLUDE\AFXRIBBONSTATUSBARPANE.H
C:\PROGRAM FILES\MICROSOFT VISUAL STUDIO 10.0\VC\ATLMFC\INCLUDE\AFXRIBBONSLIDER.H
C:\PROGRAM FILES\MICROSOFT VISUAL STUDIO 10.0\VC\ATLMFC\INCLUDE\AFXRIBBONPROGRESSBAR.H
C:\PROGRAM FILES\MICROSOFT VISUAL STUDIO 10.0\VC\ATLMFC\INCLUDE\AFXRIBBONLINKCTRL.H
C:\PROGRAM FILES\MICROSOFT VISUAL STUDIO 10.0\VC\ATLMFC\INCLUDE\AFXRIBBONUNDOBUTTON.H
C:\PROGRAM FILES\MICROSOFT VISUAL STUDIO 10.0\VC\ATLMFC\INCLUDE\AFXTOOLBAREDITBOXBUTTON.H
C:\PROGRAM FILES\MICROSOFT VISUAL STUDIO 10.0\VC\ATLMFC\INCLUDE\AFXEDITBROWSECTRL.H
C:\PROGRAM FILES\MICROSOFT VISUAL STUDIO 10.0\VC\ATLMFC\INCLUDE\AFXTOOLBARSPINEDITBOXBUTTON.H
C:\PROGRAM FILES\MICROSOFT VISUAL STUDIO 10.0\VC\ATLMFC\INCLUDE\AFXSPINBUTTONCTRL.H
C:\PROGRAM FILES\MICROSOFT VISUAL STUDIO 10.0\VC\ATLMFC\INCLUDE\AFXTOOLBARSYSTEMMENUBUTTON.H
C:\PROGRAM FILES\MICROSOFT VISUAL STUDIO 10.0\VC\ATLMFC\INCLUDE\AFXTOOLBARDATETIMECTRL.H
C:\PROGRAM FILES\MICROSOFT VISUAL STUDIO 10.0\VC\ATLMFC\INCLUDE\AFXDROPDOWNTOOLBAR.H
C:\PROGRAM FILES\MICROSOFT VISUAL STUDIO 10.0\VC\ATLMFC\INCLUDE\AFXCOLORMENUBUTTON.H
C:\PROGRAM FILES\MICROSOFT VISUAL STUDIO 10.0\VC\ATLMFC\INCLUDE\AFXOUTLOOKBARPANEBUTTON.H
C:\PROGRAM FILES\MICROSOFT VISUAL STUDIO 10.0\VC\ATLMFC\INCLUDE\AFXDROPDOWNLISTBOX.H
C:\PROGRAM FILES\MICROSOFT VISUAL STUDIO 10.0\VC\ATLMFC\INCLUDE\AFXAUTOHIDEBUTTON.H
C:\PROGRAM FILES\MICROSOFT VISUAL STUDIO 10.0\VC\ATLMFC\INCLUDE\AFXAUTOHIDEBAR.H
C:\PROGRAM FILES\MICROSOFT VISUAL STUDIO 10.0\VC\ATLMFC\INCLUDE\AFXFRAMEWNDEX.H
C:\PROGRAM FILES\MICROSOFT VISUAL STUDIO 10.0\VC\ATLMFC\INCLUDE\AFXFRAMEIMPL.H
C:\PROGRAM FILES\MICROSOFT VISUAL STUDIO 10.0\VC\ATLMFC\INCLUDE\AFXDOCKINGMANAGER.H
C:\PROGRAM FILES\MICROSOFT VISUAL STUDIO 10.0\VC\ATLMFC\INCLUDE\AFXSMARTDOCKINGMANAGER.H
C:\PROGRAM FILES\MICROSOFT VISUAL STUDIO 10.0\VC\ATLMFC\INCLUDE\AFXSMARTDOCKINGGUIDE.H
C:\PROGRAM FILES\MICROSOFT VISUAL STUDIO 10.0\VC\ATLMFC\INCLUDE\AFXSMARTDOCKINGHIGHLIGHTERWND.H
C:\PROGRAM FILES\MICROSOFT VISUAL STUDIO 10.0\VC\ATLMFC\INCLUDE\AFXFULLSCREENIMPL.H
C:\PROGRAM FILES\MICROSOFT VISUAL STUDIO 10.0\VC\ATLMFC\INCLUDE\AFXMDIFRAMEWNDEX.H
C:\PROGRAM FILES\MICROSOFT VISUAL STUDIO 10.0\VC\ATLMFC\INCLUDE\AFXMDICLIENTAREAWND.H
C:\PROGRAM FILES\MICROSOFT VISUAL STUDIO 10.0\VC\ATLMFC\INCLUDE\AFXMDICHILDWNDEX.H
C:\PROGRAM FILES\MICROSOFT VISUAL STUDIO 10.0\VC\ATLMFC\INCLUDE\AFXOLEIPFRAMEWNDEX.H
C:\PROGRAM FILES\MICROSOFT VISUAL STUDIO 10.0\VC\ATLMFC\INCLUDE\AFXOLEDOCIPFRAMEWNDEX.H
C:\PROGRAM FILES\MICROSOFT VISUAL STUDIO 10.0\VC\ATLMFC\INCLUDE\AFXDOCOB.H
C:\PROGRAM FILES\MICROSOFT VISUAL STUDIO 10.0\VC\ATLMFC\INCLUDE\AFXOLECNTRFRAMEWNDEX.H
C:\PROGRAM FILES\MICROSOFT VISUAL STUDIO 10.0\VC\ATLMFC\INCLUDE\AFXPRIV.H
C:\PROGRAM FILES\MICROSOFT VISUAL STUDIO 10.0\VC\ATLMFC\INCLUDE\AFXADV.H
C:\PROGRAM FILES\MICROSOFT VISUAL STUDIO 10.0\VC\ATLMFC\INCLUDE\AFXCONV.H
C:\PROGRAM FILES\MICROSOFT VISUAL STUDIO 10.0\VC\ATLMFC\INCLUDE\AFXPRIV2.H
C:\PROGRAM FILES\MICROSOFT VISUAL STUDIO 10.0\VC\ATLMFC\INCLUDE\AFXTOOLBARSCUSTOMIZEDIALOG.H
C:\PROGRAM FILES\MICROSOFT VISUAL STUDIO 10.0\VC\ATLMFC\INCLUDE\AFXTOOLBARSLISTPROPERTYPAGE.H
C:\PROGRAM FILES\MICROSOFT VISUAL STUDIO 10.0\VC\ATLMFC\INCLUDE\AFXTOOLBARBUTTONSLISTBUTTON.H
C:\PROGRAM FILES\MICROSOFT VISUAL STUDIO 10.0\VC\ATLMFC\INCLUDE\AFXTOOLBARSCOMMANDSLISTBOX.H
C:\PROGRAM FILES\MICROSOFT VISUAL STUDIO 10.0\VC\ATLMFC\INCLUDE\AFXTOOLBARSTOOLSPROPERTYPAGE.H
C:\PROGRAM FILES\MICROSOFT VISUAL STUDIO 10.0\VC\ATLMFC\INCLUDE\AFXVSLISTBOX.H
C:\PROGRAM FILES\MICROSOFT VISUAL STUDIO 10.0\VC\ATLMFC\INCLUDE\AFXMENUBUTTON.H
C:\PROGRAM FILES\MICROSOFT VISUAL STUDIO 10.0\VC\ATLMFC\INCLUDE\AFXTOOLBARSMENUPROPERTYPAGE.H
C:\PROGRAM FILES\MICROSOFT VISUAL STUDIO 10.0\VC\ATLMFC\INCLUDE\AFXMOUSEPROPERTYPAGE.H
C:\PROGRAM FILES\MICROSOFT VISUAL STUDIO 10.0\VC\ATLMFC\INCLUDE\AFXTOOLBARSKEYBOARDPROPERTYPAGE.H
C:\PROGRAM FILES\MICROSOFT VISUAL STUDIO 10.0\VC\ATLMFC\INCLUDE\AFXTOOLBARSOPTIONSPROPERTYPAGE.H
C:\PROGRAM FILES\MICROSOFT VISUAL STUDIO 10.0\VC\ATLMFC\INCLUDE\AFXCUSTOMIZEMENUBUTTON.H
C:\PROGRAM FILES\MICROSOFT VISUAL STUDIO 10.0\VC\ATLMFC\INCLUDE\AFXCONTEXTMENUMANAGER.H
C:\PROGRAM FILES\MICROSOFT VISUAL STUDIO 10.0\VC\ATLMFC\INCLUDE\AFXKEYBOARDMANAGER.H
C:\PROGRAM FILES\MICROSOFT VISUAL STUDIO 10.0\VC\ATLMFC\INCLUDE\AFXMOUSEMANAGER.H
C:\PROGRAM FILES\MICROSOFT VISUAL STUDIO 10.0\VC\ATLMFC\INCLUDE\AFXWINAPPEX.H
C:\PROGRAM FILES\MICROSOFT VISUAL STUDIO 10.0\VC\ATLMFC\INCLUDE\AFXSETTINGSSTORE.H
C:\PROGRAM FILES\MICROSOFT VISUAL STUDIO 10.0\VC\ATLMFC\INCLUDE\AFXREBARSTATE.H
C:\PROGRAM FILES\MICROSOFT VISUAL STUDIO 10.0\VC\ATLMFC\INCLUDE\AFXMENUTEAROFFMANAGER.H
C:\PROGRAM FILES\MICROSOFT VISUAL STUDIO 10.0\VC\ATLMFC\INCLUDE\AFXDRAWMANAGER.H
C:\PROGRAM FILES\MICROSOFT VISUAL STUDIO 10.0\VC\ATLMFC\INCLUDE\AFXDOCKINGPANESROW.H
C:\PROGRAM FILES\MICROSOFT VISUAL STUDIO 10.0\VC\ATLMFC\INCLUDE\AFXTOOLTIPMANAGER.H
C:\PROGRAM FILES\MICROSOFT VISUAL STUDIO 10.0\VC\ATLMFC\INCLUDE\AFXTOOLTIPCTRL.H
C:\PROGRAM FILES\MICROSOFT VISUAL STUDIO 10.0\VC\ATLMFC\INCLUDE\AFXCONTROLRENDERER.H
C:\PROGRAM FILES\MICROSOFT VISUAL STUDIO 10.0\VC\ATLMFC\INCLUDE\AFXDOCKABLEPANEADAPTER.H
C:\PROGRAM FILES\MICROSOFT VISUAL STUDIO 10.0\VC\ATLMFC\INCLUDE\AFXDOCKSITE.H
C:\PROGRAM FILES\MICROSOFT VISUAL STUDIO 10.0\VC\ATLMFC\INCLUDE\AFXCOLORBUTTON.H
C:\PROGRAM FILES\MICROSOFT VISUAL STUDIO 10.0\VC\ATLMFC\INCLUDE\AFXLINKCTRL.H
C:\PROGRAM FILES\MICROSOFT VISUAL STUDIO 10.0\VC\ATLMFC\INCLUDE\AFXCOLORPICKERCTRL.H
C:\PROGRAM FILES\MICROSOFT VISUAL STUDIO 10.0\VC\ATLMFC\INCLUDE\AFXFONTCOMBOBOX.H
C:\PROGRAM FILES\MICROSOFT VISUAL STUDIO 10.0\VC\ATLMFC\INCLUDE\AFXREBAR.H
C:\PROGRAM FILES\MICROSOFT VISUAL STUDIO 10.0\VC\ATLMFC\INCLUDE\AFXSHELLTREECTRL.H
C:\PROGRAM FILES\MICROSOFT VISUAL STUDIO 10.0\VC\ATLMFC\INCLUDE\AFXSHELLMANAGER.H
C:\PROGRAM FILES\MICROSOFT VISUAL STUDIO 10.0\VC\ATLMFC\INCLUDE\AFXSHELLLISTCTRL.H
C:\PROGRAM FILES\MICROSOFT VISUAL STUDIO 10.0\VC\ATLMFC\INCLUDE\AFXLISTCTRL.H
C:\PROGRAM FILES\MICROSOFT VISUAL STUDIO 10.0\VC\ATLMFC\INCLUDE\AFXHEADERCTRL.H
C:\PROGRAM FILES\MICROSOFT VISUAL STUDIO 10.0\VC\ATLMFC\INCLUDE\AFXPROPERTYGRIDCTRL.H
C:\PROGRAM FILES\MICROSOFT VISUAL STUDIO 10.0\VC\INCLUDE\COMDEF.H
C:\PROGRAM FILES\MICROSOFT VISUAL STUDIO 10.0\VC\INCLUDE\COMUTIL.H
C:\PROGRAM FILES\MICROSOFT VISUAL STUDIO 10.0\VC\INCLUDE\ASSERT.H
C:\PROGRAM FILES\MICROSOFT VISUAL STUDIO 10.0\VC\INCLUDE\COMIP.H
C:\PROGRAM FILES\MICROSOFT VISUAL STUDIO 10.0\VC\INCLUDE\COMDEFSP.H
C:\PROGRAM FILES\MICROSOFT VISUAL STUDIO 10.0\VC\ATLMFC\INCLUDE\AFXCOLORPOPUPMENU.H
C:\PROGRAM FILES\MICROSOFT VISUAL STUDIO 10.0\VC\ATLMFC\INCLUDE\AFXPROPERTYGRIDTOOLTIPCTRL.H
C:\PROGRAM FILES\MICROSOFT VISUAL STUDIO 10.0\VC\ATLMFC\INCLUDE\AFXMASKEDEDIT.H
C:\PROGRAM FILES\MICROSOFT VISUAL STUDIO 10.0\VC\ATLMFC\INCLUDE\AFXSPLITTERWNDEX.H
C:\PROGRAM FILES\MICROSOFT VISUAL STUDIO 10.0\VC\ATLMFC\INCLUDE\AFXDESKTOPALERTWND.H
C:\PROGRAM FILES\MICROSOFT VISUAL STUDIO 10.0\VC\ATLMFC\INCLUDE\AFXDESKTOPALERTDIALOG.H
C:\PROGRAM FILES\MICROSOFT VISUAL STUDIO 10.0\VC\ATLMFC\INCLUDE\AFXWINDOWSMANAGERDIALOG.H
C:\PROGRAM FILES\MICROSOFT VISUAL STUDIO 10.0\VC\ATLMFC\INCLUDE\AFXPREVIEWVIEWEX.H
C:\PROGRAM FILES\MICROSOFT VISUAL STUDIO 10.0\VC\ATLMFC\INCLUDE\AFXIMAGEEDITORDIALOG.H
C:\PROGRAM FILES\MICROSOFT VISUAL STUDIO 10.0\VC\ATLMFC\INCLUDE\AFXIMAGEPAINTAREA.H
C:\PROGRAM FILES\MICROSOFT VISUAL STUDIO 10.0\VC\ATLMFC\INCLUDE\AFXCOLORDIALOG.H
C:\PROGRAM FILES\MICROSOFT VISUAL STUDIO 10.0\VC\ATLMFC\INCLUDE\AFXSTANDARDCOLORSPROPERTYPAGE.H
C:\PROGRAM FILES\MICROSOFT VISUAL STUDIO 10.0\VC\ATLMFC\INCLUDE\AFXCUSTOMCOLORSPROPERTYPAGE.H
C:\PROGRAM FILES\MICROSOFT VISUAL STUDIO 10.0\VC\ATLMFC\INCLUDE\AFXKEYMAPDIALOG.H
C:\PROGRAM FILES\MICROSOFT VISUAL STUDIO 10.0\VC\ATLMFC\INCLUDE\AFXTABVIEW.H
C:\PROGRAM FILES\MICROSOFT VISUAL STUDIO 10.0\VC\ATLMFC\INCLUDE\AFXVISUALMANAGEROFFICEXP.H
C:\PROGRAM FILES\MICROSOFT VISUAL STUDIO 10.0\VC\ATLMFC\INCLUDE\AFXVISUALMANAGERWINDOWS.H
C:\PROGRAM FILES\MICROSOFT VISUAL STUDIO 10.0\VC\ATLMFC\INCLUDE\AFXVISUALMANAGEROFFICE2003.H
C:\PROGRAM FILES\MICROSOFT VISUAL STUDIO 10.0\VC\ATLMFC\INCLUDE\AFXVISUALMANAGERVS2005.H
C:\PROGRAM FILES\MICROSOFT VISUAL STUDIO 10.0\VC\ATLMFC\INCLUDE\AFXVISUALMANAGERVS2008.H
C:\PROGRAM FILES\MICROSOFT VISUAL STUDIO 10.0\VC\ATLMFC\INCLUDE\AFXVISUALMANAGEROFFICE2007.H
C:\PROGRAM FILES\MICROSOFT VISUAL STUDIO 10.0\VC\ATLMFC\INCLUDE\AFXVISUALMANAGERWINDOWS7.H
C:\PROGRAM FILES\MICROSOFT VISUAL STUDIO 10.0\VC\ATLMFC\INCLUDE\AFXOLESERVERDOCEX.H
C:\PROGRAM FILES\MICROSOFT VISUAL STUDIO 10.0\VC\ATLMFC\INCLUDE\AFXGLOBALUTILS.H
C:\PROGRAM FILES\MICROSOFT VISUAL STUDIO 10.0\VC\ATLMFC\INCLUDE\AFXSOCK.H
C:\PROGRAM FILES\MICROSOFT VISUAL STUDIO 10.0\VC\ATLMFC\INCLUDE\ATLSOCKET.H
C:\PROGRAM FILES\MICROSOFT SDKS\WINDOWS\V7.0A\INCLUDE\MSWSOCK.H
C:\PROGRAM FILES\MICROSOFT SDKS\WINDOWS\V7.0A\INCLUDE\MSWSOCKDEF.H
C:\PROGRAM FILES\MICROSOFT SDKS\WINDOWS\V7.0A\INCLUDE\WS2TCPIP.H
C:\PROGRAM FILES\MICROSOFT VISUAL STUDIO 10.0\VC\ATLMFC\INCLUDE\ATLSOCKET.INL
^D:\LACQUEHAY\SOCKETWINDOW\SOCKETWINDOW\SOCKETWINDOWDLG.CPP
D:\LACQUEHAY\SOCKETWINDOW\SOCKETWINDOW\DEBUG\SOCKETWINDOW.PCH
D:\LACQUEHAY\SOCKETWINDOW\SOCKETWINDOW\SOCKETWINDOW.H
D:\LACQUEHAY\SOCKETWINDOW\SOCKETWINDOW\RESOURCE.H
D:\LACQUEHAY\SOCKETWINDOW\SOCKETWINDOW\SOCKETWINDOWDLG.H
D:\LACQUEHAY\SOCKETWINDOW\SOCKETWINDOW\SOCKETSERVEUR.H
D:\LACQUEHAY\SOCKETWINDOW\SOCKETWINDOW\SOCKETSERVICE.H
^D:\LACQUEHAY\SOCKETWINDOW\SOCKETWINDOW\SOCKETWINDOW.CPP
D:\LACQUEHAY\SOCKETWINDOW\SOCKETWINDOW\DEBUG\SOCKETWINDOW.PCH
D:\LACQUEHAY\SOCKETWINDOW\SOCKETWINDOW\SOCKETWINDOW.H
D:\LACQUEHAY\SOCKETWINDOW\SOCKETWINDOW\RESOURCE.H
D:\LACQUEHAY\SOCKETWINDOW\SOCKETWINDOW\SOCKETWINDOWDLG.H
D:\LACQUEHAY\SOCKETWINDOW\SOCKETWINDOW\SOCKETSERVEUR.H
D:\LACQUEHAY\SOCKETWINDOW\SOCKETWINDOW\SOCKETSERVICE.H
^D:\LACQUEHAY\SOCKETWINDOW\SOCKETWINDOW\SOCKETSERVICE.CPP
D:\LACQUEHAY\SOCKETWINDOW\SOCKETWINDOW\DEBUG\SOCKETWINDOW.PCH
D:\LACQUEHAY\SOCKETWINDOW\SOCKETWINDOW\SOCKETWINDOW.H
D:\LACQUEHAY\SOCKETWINDOW\SOCKETWINDOW\RESOURCE.H
D:\LACQUEHAY\SOCKETWINDOW\SOCKETWINDOW\SOCKETSERVICE.H
^D:\LACQUEHAY\SOCKETWINDOW\SOCKETWINDOW\SOCKETSERVEUR.CPP
D:\LACQUEHAY\SOCKETWINDOW\SOCKETWINDOW\DEBUG\SOCKETWINDOW.PCH
D:\LACQUEHAY\SOCKETWINDOW\SOCKETWINDOW\SOCKETWINDOW.H
D:\LACQUEHAY\SOCKETWINDOW\SOCKETWINDOW\RESOURCE.H
D:\LACQUEHAY\SOCKETWINDOW\SOCKETWINDOW\SOCKETSERVEUR.H
D:\LACQUEHAY\SOCKETWINDOW\SOCKETWINDOW\SOCKETSERVICE.H
