^C:\DOCUMENTS AND SETTINGS\ADMINISTRATEUR\BUREAU\SOCKETWINDOW\SOCKETWINDOW\DEBUG\SOCKETSERVEUR.OBJ|C:\DOCUMENTS AND SETTINGS\ADMINISTRATEUR\BUREAU\SOCKETWINDOW\SOCKETWINDOW\DEBUG\SOCKETSERVICE.OBJ|C:\DOCUMENTS AND SETTINGS\ADMINISTRATEUR\BUREAU\SOCKETWINDOW\SOCKETWINDOW\DEBUG\SOCKETWINDOW.EXE.EMBED.MANIFEST.RES|C:\DOCUMENTS AND SETTINGS\ADMINISTRATEUR\BUREAU\SOCKETWINDOW\SOCKETWINDOW\DEBUG\SOCKETWINDOW.OBJ|C:\DOCUMENTS AND SETTINGS\ADMINISTRATEUR\BUREAU\SOCKETWINDOW\SOCKETWINDOW\DEBUG\SOCKETWINDOW.RES|C:\DOCUMENTS AND SETTINGS\ADMINISTRATEUR\BUREAU\SOCKETWINDOW\SOCKETWINDOW\DEBUG\SOCKETWINDOWDLG.OBJ|C:\DOCUMENTS AND SETTINGS\ADMINISTRATEUR\BUREAU\SOCKETWINDOW\SOCKETWINDOW\DEBUG\STDAFX.OBJ
/ERRORREPORT:PROMPT /OUT:"C:\Documents and Settings\Administrateur\Bureau\SocketWindow\Debug\SocketWindow.exe" /INCREMENTAL /NOLOGO /MANIFEST /ManifestFile:"Debug\SocketWindow.exe.intermediate.manifest" /MANIFESTUAC:"level='asInvoker' uiAccess='false'" /DEBUG /PDB:"C:\Documents and Settings\Administrateur\Bureau\SocketWindow\Debug\SocketWindow.pdb" /SUBSYSTEM:WINDOWS /TLBID:1 /ENTRY:"wWinMainCRTStartup" /DYNAMICBASE /NXCOMPAT /IMPLIB:"C:\Documents and Settings\Administrateur\Bureau\SocketWindow\Debug\SocketWindow.lib" /MACHINE:X86 Debug\SocketWindow.res
Debug\SocketWindow.exe.embed.manifest.res
Debug\SocketServeur.obj
Debug\SocketService.obj
Debug\SocketWindow.obj
Debug\SocketWindowDlg.obj
Debug\stdafx.obj
^D:\LACQUEHAY\SOCKETWINDOW\SOCKETWINDOW\DEBUG\SOCKETSERVEUR.OBJ|D:\LACQUEHAY\SOCKETWINDOW\SOCKETWINDOW\DEBUG\SOCKETSERVICE.OBJ|D:\LACQUEHAY\SOCKETWINDOW\SOCKETWINDOW\DEBUG\SOCKETWINDOW.EXE.EMBED.MANIFEST.RES|D:\LACQUEHAY\SOCKETWINDOW\SOCKETWINDOW\DEBUG\SOCKETWINDOW.OBJ|D:\LACQUEHAY\SOCKETWINDOW\SOCKETWINDOW\DEBUG\SOCKETWINDOW.RES|D:\LACQUEHAY\SOCKETWINDOW\SOCKETWINDOW\DEBUG\SOCKETWINDOWDLG.OBJ|D:\LACQUEHAY\SOCKETWINDOW\SOCKETWINDOW\DEBUG\STDAFX.OBJ
/ERRORREPORT:PROMPT /OUT:"D:\Lacquehay\SocketWindow\Debug\SocketWindow.exe" /INCREMENTAL /NOLOGO /MANIFEST /ManifestFile:"Debug\SocketWindow.exe.intermediate.manifest" /MANIFESTUAC:"level='asInvoker' uiAccess='false'" /DEBUG /PDB:"D:\Lacquehay\SocketWindow\Debug\SocketWindow.pdb" /SUBSYSTEM:WINDOWS /TLBID:1 /ENTRY:"wWinMainCRTStartup" /DYNAMICBASE /NXCOMPAT /IMPLIB:"D:\Lacquehay\SocketWindow\Debug\SocketWindow.lib" /MACHINE:X86 Debug\SocketWindow.res
Debug\SocketWindow.exe.embed.manifest.res
Debug\SocketServeur.obj
Debug\SocketService.obj
Debug\SocketWindow.obj
Debug\SocketWindowDlg.obj
Debug\stdafx.obj
