^D:\LACQUEHAY\XML\XML\DEBUG\MAIN.OBJ|D:\LACQUEHAY\XML\XML\DEBUG\TINYSTR.OBJ|D:\LACQUEHAY\XML\XML\DEBUG\TINYXML.OBJ|D:\LACQUEHAY\XML\XML\DEBUG\TINYXMLERROR.OBJ|D:\LACQUEHAY\XML\XML\DEBUG\TINYXMLPARSER.OBJ|D:\LACQUEHAY\XML\XML\DEBUG\XML.EXE.EMBED.MANIFEST.RES
D:\LACQUEHAY\XML\DEBUG\XML.ILK
D:\LACQUEHAY\XML\DEBUG\XML.EXE
D:\LACQUEHAY\XML\XML\DEBUG\XML.EXE.INTERMEDIATE.MANIFEST
D:\LACQUEHAY\XML\DEBUG\XML.PDB
