^C:\DOCUMENTS AND SETTINGS\ADMINISTRATEUR\BUREAU\PROJET\EXEMPLEGENERERPDF\GENPDF\GENPDF\RELEASE\GENPDF.EXE.INTERMEDIATE.MANIFEST|C:\PROGRAM FILES\MICROSOFT VISUAL STUDIO 10.0\VC\INCLUDE\MANIFEST\DPIAWARE.MANIFEST
C:\DOCUMENTS AND SETTINGS\ADMINISTRATEUR\BUREAU\PROJET\EXEMPLEGENERERPDF\GENPDF\RELEASE\GENPDF.EXE
^C:\DOCUMENTS AND SETTINGS\ADMINISTRATEUR\BUREAU\GENERERPDF\EXEMPLEGENERERPDF\GENPDF\GENPDF\RELEASE\GENPDF.EXE.INTERMEDIATE.MANIFEST|C:\PROGRAM FILES\MICROSOFT VISUAL STUDIO 10.0\VC\INCLUDE\MANIFEST\DPIAWARE.MANIFEST
C:\DOCUMENTS AND SETTINGS\ADMINISTRATEUR\BUREAU\GENERERPDF\EXEMPLEGENERERPDF\GENPDF\RELEASE\GENPDF.EXE
