﻿<?xml version="1.0" encoding="UTF-8"?>
<TestRun id="4c2cfab1-3a74-488a-9c87-6b8aa66e8598" name="Administrateur@UTILISA-OTLGI99 2013-03-14 14:49:24" runUser="UTILISA-OTLGI99\Administrateur" xmlns="http://microsoft.com/schemas/VisualStudio/TeamTest/2010">
  <TestSettings name="Local" id="cd3930fe-0463-4ad6-86df-9b7052235484">
    <Description>These are default test settings for a local test run.</Description>
    <Deployment enabled="false" runDeploymentRoot="Administrateur_UTILISA-OTLGI99 2013-03-14 14_49_24">
      <DeploymentItem filename="C:\Users\Administrateur\Dropbox\Cours\C#\Test\dllCredit\bin\Debug\dllCredit.dll" />
    </Deployment>
    <Execution>
      <TestTypeSpecific />
      <AgentRule name="Execution Agents">
      </AgentRule>
    </Execution>
  </TestSettings>
  <Times creation="2013-03-14T14:49:24.9323057+01:00" queuing="2013-03-14T14:49:24.9953093+01:00" start="2013-03-14T14:49:25.0613130+01:00" finish="2013-03-14T14:49:25.6803484+01:00" />
  <ResultSummary outcome="Failed">
    <Counters total="1" executed="1" error="0" failed="1" timeout="0" aborted="0" inconclusive="0" passedButRunAborted="0" notRunnable="0" notExecuted="0" disconnected="0" warning="0" passed="0" completed="0" inProgress="0" pending="0" />
  </ResultSummary>
  <TestDefinitions>
    <UnitTest name="CalculMensualiteTest" storage="c:\users\administrateur\dropbox\cours\c#\test\dllcredit\testprojectsimulateur\bin\debug\testprojectsimulateur.dll" id="32737303-14a5-fff7-b200-e2c5d46dedee">
      <Execution id="78579cca-8b94-421b-a71e-e66bd903ae81" />
      <TestMethod codeBase="C:/Users/Administrateur/Dropbox/Cours/C#/Test/dllCredit/TestProjectSimulateur/bin/Debug/TestProjectSimulateur.DLL" adapterTypeName="Microsoft.VisualStudio.TestTools.TestTypes.Unit.UnitTestAdapter, Microsoft.VisualStudio.QualityTools.Tips.UnitTest.Adapter, Version=10.0.0.0, Culture=neutral, PublicKeyToken=b03f5f7f11d50a3a" className="TestProjectSimulateur.SimulateurCreditTest, TestProjectSimulateur, Version=1.0.0.0, Culture=neutral, PublicKeyToken=null" name="CalculMensualiteTest" />
    </UnitTest>
  </TestDefinitions>
  <TestLists>
    <TestList name="Results Not in a List" id="8c84fa94-04c1-424b-9868-57a2d4851a1d" />
    <TestList name="All Loaded Results" id="19431567-8539-422a-85d7-44ee4e166bda" />
  </TestLists>
  <TestEntries>
    <TestEntry testId="32737303-14a5-fff7-b200-e2c5d46dedee" executionId="78579cca-8b94-421b-a71e-e66bd903ae81" testListId="8c84fa94-04c1-424b-9868-57a2d4851a1d" />
  </TestEntries>
  <Results>
    <UnitTestResult executionId="78579cca-8b94-421b-a71e-e66bd903ae81" testId="32737303-14a5-fff7-b200-e2c5d46dedee" testName="CalculMensualiteTest" computerName="UTILISA-OTLGI99" duration="00:00:00.0781579" startTime="2013-03-14T14:49:25.0693135+01:00" endTime="2013-03-14T14:49:25.6203450+01:00" testType="13cdc9d9-ddb5-4fa4-a97d-d965ccfc6d4b" outcome="Failed" testListId="8c84fa94-04c1-424b-9868-57a2d4851a1d" relativeResultsDirectory="78579cca-8b94-421b-a71e-e66bd903ae81">
      <Output>
        <ErrorInfo>
          <Message>Assert.AreEqual failed. Expected:&lt;1050,36&gt;. Actual:&lt;Non Numérique&gt;. Erreur Calcul Mensualité</Message>
          <StackTrace>   at TestProjectSimulateur.SimulateurCreditTest.CalculMensualiteTest() in C:\Users\Administrateur\Dropbox\Cours\C#\Test\dllCredit\TestProjectSimulateur\SimulateurCreditTest.cs:line 76
</StackTrace>
        </ErrorInfo>
      </Output>
    </UnitTestResult>
  </Results>
</TestRun>