;  ASM code generated by mikroVirtualMachine for PIC - V. 8.0.0.0
;  Date/Time: 01/10/2010 10:46:32
;  Info: http://www.mikroe.com


; ADDRESS	OPCODE	ASM
; ----------------------------------------------
$0000	$280C			GOTO	_main
$0004	$	_Init:
;Exercice2.c,10 :: 		void Init ()
;Exercice2.c,12 :: 		PORTD = 0;
$0004	$1303			BCF	STATUS, RP1
$0005	$1283			BCF	STATUS, RP0
$0006	$0188			CLRF	PORTD, 1
;Exercice2.c,13 :: 		TRISD = 0;
$0007	$1683			BSF	STATUS, RP0
$0008	$0188			CLRF	TRISD, 1
;Exercice2.c,14 :: 		TRISC = 0xFF;
$0009	$30FF			MOVLW	255
$000A	$0087			MOVWF	TRISC
;Exercice2.c,15 :: 		}
$000B	$0008			RETURN
$000C	$	_main:
;Exercice2.c,19 :: 		void main ()
;Exercice2.c,21 :: 		Init();
$000C	$2004			CALL	_Init
;Exercice2.c,22 :: 		while(1)
$000D	$	L_main_0:
;Exercice2.c,24 :: 		PortD = PortC;
$000D	$1283			BCF	STATUS, RP0
$000E	$0807			MOVF	PORTC, 0
$000F	$0088			MOVWF	PORTD
;Exercice2.c,25 :: 		}
$0010	$280D			GOTO	L_main_0
;Exercice2.c,27 :: 		}
$0011	$2811			GOTO	$


//** Procedures locations **
//ADDRESS		PROCEDURE
//----------------------------------------------
$0004		Init
$000C		main


//** Labels locations **
//ADDRESS		LABEL
//----------------------------------------------
$0004		_Init:
$000C		_main:
$000D		L_main_0:


//** Variables locations **
//ADDRESS		VARIABLE
//----------------------------------------------
$0000		INDF
$0002		PCL
$0003		STATUS
$0004		FSR
$0007		PORTC
$0008		PORTD
$000A		PCLATH
$0070		STACK_0
$0071		STACK_1
$0072		STACK_2
$0073		STACK_3
$0074		STACK_4
$0075		STACK_5
$0076		STACK_6
$0077		STACK_7
$0078		STACK_8
$0079		STACK_9
$007A		STACK_10
$007B		STACK_11
$007C		STACK_12
$007D		STACK_13
$007E		STACK_14
$007F		STACK_15
$0087		TRISC
$0088		TRISD


